\relax 
\citation{TOMANCAK2002}
\citation{ARIAS2008}
\citation{MONTELL2003}
\citation{CASTRO2011}
\citation{XIONG2006a}
\citation{CHEN2006}
\citation{GHITA2014}
\citation{LUCCHI2012}
\select@language{english}
\@writefile{toc}{\select@language{english}}
\@writefile{lof}{\select@language{english}}
\@writefile{lot}{\select@language{english}}
\providecommand \oddpage@label [2]{}
\select@language{english}
\@writefile{toc}{\select@language{english}}
\@writefile{lof}{\select@language{english}}
\@writefile{lot}{\select@language{english}}
\@writefile{toc}{\contentsline {section}{\numberline {1} Introduction}{1}}
\newlabel{sec:intro}{{1}{1}}
\newlabel{fig:fig_1a}{{1(a)}{1}}
\newlabel{sub@fig:fig_1a}{{(a)}{1}}
\newlabel{fig:fig_1b}{{1(b)}{1}}
\newlabel{sub@fig:fig_1b}{{(b)}{1}}
\@writefile{lof}{\contentsline {figure}{\numberline {1}{\ignorespaces \textit  {Drosophila} ovaries. \textbf  {(a)} examples of localized ovaries during oogenesis. Green signal shows nuclei of cells during early stages of occyte development, whereas magenta signal comes from the specific RNA expression. \textbf  {(b)} annotated ovary showing nurse and follicle cells and cytoplasm.}}{1}}
\@writefile{lof}{\contentsline {subfigure}{\numberline{(a)}{\ignorespaces {}}}{1}}
\@writefile{lof}{\contentsline {subfigure}{\numberline{(b)}{\ignorespaces {}}}{1}}
\newlabel{fig:fig_1}{{1}{1}}
\citation{VARMA2005}
\citation{JAVED2011}
\citation{ACHANTA2012}
\citation{LEUNG2001}
\citation{AKSOY2001}
\@writefile{toc}{\contentsline {section}{\numberline {2} Methodology}{2}}
\newlabel{sec:metho}{{2}{2}}
\@writefile{toc}{\contentsline {subsection}{\numberline {2.1} Superpixel segmentation}{2}}
\@writefile{toc}{\contentsline {subsection}{\numberline {2.2} Supertexton dictionary}{2}}
\newlabel{eq:eq_1}{{1}{2}}
\newlabel{eq:eq_2}{{2}{2}}
\newlabel{eq:eq_3}{{3}{2}}
\@writefile{toc}{\contentsline {subsection}{\numberline {2.3} Classification}{2}}
\bibstyle{IEEEbib}
\bibdata{references}
\bibcite{TOMANCAK2002}{1}
\bibcite{ARIAS2008}{2}
\bibcite{MONTELL2003}{3}
\bibcite{CASTRO2011}{4}
\@writefile{lot}{\contentsline {table}{\numberline {1}{\ignorespaces Classification rates. The values represent mean rates after the classification of 54 images. All data are expressed in $(\%)$. The values between parenthesis represent standard deviations. Bold values represent the best rates.}}{3}}
\newlabel{tab:tab_1}{{1}{3}}
\@writefile{toc}{\contentsline {section}{\numberline {3} Experimental Results}{3}}
\newlabel{sec:exp}{{3}{3}}
\@writefile{toc}{\contentsline {section}{\numberline {4} Conclusions}{3}}
\newlabel{sec:concl}{{4}{3}}
\@writefile{toc}{\contentsline {section}{\numberline {5} References}{3}}
\bibcite{XIONG2006a}{5}
\bibcite{CHEN2006}{6}
\bibcite{GHITA2014}{7}
\bibcite{LUCCHI2012}{8}
\bibcite{VARMA2005}{9}
\bibcite{JAVED2011}{10}
\bibcite{ACHANTA2012}{11}
\bibcite{LEUNG2001}{12}
\bibcite{AKSOY2001}{13}
\@writefile{lof}{\contentsline {figure}{\numberline {2}{\ignorespaces Examples of segmentation in \textit  {Drosophila} egg chambers. \textbf  {(a)} localized egg chamber; \textbf  {(b)} the corresponding ground-truth; \textbf  {(c)} supertexton segmentation; \textbf  {(d)} pixel-based segmentation, and; \textbf  {(e)} texton segmentation.}}{4}}
\@writefile{lof}{\contentsline {subfigure}{\numberline{(a)}{\ignorespaces {}}}{4}}
\@writefile{lof}{\contentsline {subfigure}{\numberline{(b)}{\ignorespaces {}}}{4}}
\@writefile{lof}{\contentsline {subfigure}{\numberline{(c)}{\ignorespaces {}}}{4}}
\@writefile{lof}{\contentsline {subfigure}{\numberline{(d)}{\ignorespaces {}}}{4}}
\@writefile{lof}{\contentsline {subfigure}{\numberline{(e)}{\ignorespaces {}}}{4}}
\newlabel{fig:fig_3}{{2}{4}}
