\relax 
\@writefile{toc}{\contentsline {section}{\numberline {1} Introduction}{1}}
\newlabel{sec:intro}{{1}{1}}
\@writefile{toc}{\contentsline {section}{\numberline {2} Formatting your paper}{1}}
\newlabel{sec:format}{{2}{1}}
\@writefile{toc}{\contentsline {section}{\numberline {3} PAGE TITLE SECTION}{1}}
\newlabel{sec:pagestyle}{{3}{1}}
\@writefile{toc}{\contentsline {section}{\numberline {4} TYPE-STYLE AND FONTS}{1}}
\newlabel{sec:typestyle}{{4}{1}}
\@writefile{toc}{\contentsline {section}{\numberline {5} MAJOR HEADINGS}{1}}
\newlabel{sec:majhead}{{5}{1}}
\@writefile{toc}{\contentsline {subsection}{\numberline {5.1} Subheadings}{1}}
\newlabel{ssec:subhead}{{5.1}{1}}
\@writefile{toc}{\contentsline {subsubsection}{\numberline {5.1.1} Sub-subheadings}{1}}
\newlabel{sssec:subsubhead}{{5.1.1}{1}}
\@writefile{toc}{\contentsline {section}{\numberline {6} PAPER FORMAT}{1}}
\newlabel{sec:print}{{6}{1}}
\citation{Lamp86}
\citation{C2}
\bibstyle{IEEEbib}
\bibdata{refs}
\@writefile{lof}{\contentsline {figure}{\numberline {1}{\ignorespaces Example of placing a figure with experimental results.}}{2}}
\newlabel{fig:res}{{1}{2}}
\@writefile{toc}{\contentsline {section}{\numberline {7} PAGE NUMBERING}{2}}
\newlabel{sec:page}{{7}{2}}
\@writefile{toc}{\contentsline {section}{\numberline {8} ILLUSTRATIONS, GRAPHS, AND PHOTOGRAPHS}{2}}
\newlabel{sec:illust}{{8}{2}}
\@writefile{toc}{\contentsline {section}{\numberline {9} FOOTNOTES}{2}}
\newlabel{sec:foot}{{9}{2}}
\@writefile{toc}{\contentsline {section}{\numberline {10} COPYRIGHT FORMS}{2}}
\newlabel{sec:copyright}{{10}{2}}
\@writefile{toc}{\contentsline {section}{\numberline {11} REFERENCES}{2}}
\newlabel{sec:ref}{{11}{2}}
