                       count      mean       std       min       max
encoding_nb_labels_10   2758  0.119660  0.042201  0.000274  0.341684
encoding_nb_labels_8    2758  0.117151  0.041907  0.000274  0.354449
encoding_nb_labels_20   2758  0.077985  0.019900  0.000274  0.369518
encoding_nb_labels_60   2758  0.043538  0.016781  0.000274  0.205368
encoding_nb_labels_40   2758  0.041606  0.016739  0.000274  0.215683
encoding_nb_labels_14   2758  0.090328  0.022936  0.000274  0.374806
encoding_nb_labels_5    2758  0.121513  0.045285  0.000274  0.380064
encoding_nb_labels_12   2758  0.097740  0.026119  0.000274  0.314600
encoding_nb_labels_25   2758  0.068212  0.018337  0.000274  0.345502
encoding_nb_labels_16   2758  0.091460  0.023547  0.000274  0.368250
encoding_nb_labels_30   2758  0.048475  0.017122  0.000274  0.233807
encoding_nb_labels_18   2758  0.087107  0.022725  0.000274  0.381778