1,8.595
2,8.526
3,6.894
4,5.066
5,14.370
6,14.420
7,14.823
8,10.395
9,10.164
10,15.025
11,21.615
12,11.958
13,19.597
14,14.978
15,11.384
16,13.509
17,23.967
18,12.874
19,16.490
20,18.797
21,34.274
22,16.482
23,41.239
24,18.410
25,33.815
26,17.897
27,21.138
28,13.619
29,15.861
30,13.217
31,17.178
32,14.229
33,14.308
34,13.606
35,13.746
36,17.606
37,15.055
38,13.231
39,12.633
40,13.249
41,16.371
42,14.825
43,12.949
44,14.743
45,21.251
46,23.260
47,20.034
48,21.517
49,22.333
50,18.566
51,22.137
52,16.347
53,19.005
54,20.078
55,19.276
56,20.930
57,20.457
58,21.447
59,24.169
60,22.372
61,18.115
62,20.527
63,21.380
64,23.554
65,20.583
66,30.418
67,20.088
68,26.215
69,18.892
70,27.418
71,25.656
72,27.926
73,27.119
74,28.042
75,28.689
76,24.464
77,25.965
78,29.249
79,25.931
80,30.756
81,30.753
82,27.785
83,29.725
84,28.047
85,31.682
86,27.388
87,32.449
88,33.385
89,34.402
90,27.886
91,36.606
92,33.843
93,36.845
94,31.032
95,38.700
96,34.048
97,40.780
98,32.907
99,35.727
100,33.951
101,40.627
102,34.703
103,38.565
104,31.741
105,38.099
106,32.249
107,34.350
108,39.080
109,37.713
110,31.756
111,40.311
112,40.210
113,36.372
114,36.353
115,36.786
116,40.107
117,33.571
118,37.717
119,39.673
120,41.262
121,38.162
122,43.394
123,38.018
124,40.024
125,43.086
126,42.238
127,44.207
128,44.274
129,38.649
130,42.615
131,37.689
132,45.976
133,43.131
134,49.959
135,40.055
136,51.426
137,44.277
138,52.650
139,44.827
140,47.519
141,43.444
142,48.025
143,46.892
144,47.101
145,47.542
146,47.964
147,43.543
148,53.319
149,47.647
150,53.186
151,51.054
152,48.199
153,54.023
154,53.821
155,51.286
156,51.721
157,51.610
158,50.612
159,52.753
160,46.579
161,53.227
162,47.420
163,50.164
164,46.916
165,57.887
166,50.331
167,56.995
168,48.155
169,56.642
170,52.935
171,58.611
172,52.145
173,59.703
174,53.482
175,52.294
176,56.879
177,48.440
178,52.062
179,48.233
180,57.760
181,46.380
182,59.026
183,46.209
184,59.930
185,44.150
186,52.290
187,43.695
188,59.694
189,40.272
190,63.403
191,39.002
192,60.150
193,40.391
194,56.978
195,41.435
196,58.400
197,43.229
198,58.759
199,47.160
200,53.790
201,45.136
202,53.398
203,47.086
204,53.319
205,44.047
206,51.127
207,43.864
208,48.809
209,47.133
210,49.093
211,41.921
212,48.509
213,42.320
214,40.336
215,44.256
216,37.773
217,45.167
218,37.328
219,44.296
220,39.023
221,41.914
222,41.415
223,41.413
224,43.431
225,44.063
226,38.387
227,43.141
228,39.013
229,42.432
230,42.886
231,41.110
232,39.087
233,43.900
234,41.363
235,41.897
236,41.603
237,40.675
238,41.326
239,42.209
240,44.371
241,38.896
242,43.941
243,39.590
244,41.020
245,39.835
246,38.814
247,42.176
248,42.759
249,43.816
250,40.838
251,45.829
252,43.366
253,40.687
254,40.055
255,44.610
256,45.213
257,46.052
258,44.025
259,44.751
260,46.376
261,42.373
262,45.326
263,45.752
264,44.606
265,44.000
266,46.322
267,43.326
268,44.969
269,47.500
270,47.861
271,44.908
272,44.553
273,44.500
274,48.247
275,48.677
276,45.530
277,49.184
278,46.256
279,47.076
280,48.139
281,50.538
282,49.113
283,45.965
284,46.723
285,49.013
286,47.046
287,51.455
288,51.159
289,51.378
290,49.560
291,53.490
292,52.074
293,51.609
294,49.575
295,46.004
296,49.763
297,51.035
298,46.923
299,47.568
300,46.727
301,48.431
302,46.667
303,49.269
304,47.155
305,49.007
306,52.182
307,53.274
308,49.110
309,52.770
310,49.737
311,53.599
312,46.026
313,48.194
314,48.028
315,53.026
316,49.385
317,55.914
318,50.808
319,50.892
320,50.500
321,49.769
322,48.066
323,44.981
324,49.102
325,52.978
326,51.073
327,45.953
328,53.564
329,46.963
330,49.274
331,47.340
332,49.863
333,48.501
334,47.165
335,49.941
336,46.762
337,54.101
338,46.024
339,48.365
340,49.775
341,50.090
342,49.495
343,50.472
344,43.310
345,53.222
346,47.920
347,49.605
348,49.816
349,51.279
350,43.143
351,51.011
352,45.418
353,49.614
354,48.523
355,50.308
356,47.457
357,52.107
358,44.151
359,52.600
360,47.035
361,53.237
362,45.349
363,48.807
364,45.570
365,49.634
366,45.415
367,49.523
368,48.144
369,47.252
370,45.914
371,44.681
372,46.051
373,46.869
374,45.397
375,46.496
376,43.329
377,44.249
378,46.119
379,43.464
380,44.169
381,43.491
382,43.887
383,43.995
384,46.755
385,42.301
386,46.282
387,43.155
388,46.067
389,45.238
390,44.274
391,45.224
392,43.539
393,44.518
394,44.785
395,43.444
396,42.982
397,45.409
398,43.944
399,43.178
400,39.370
401,41.523
402,40.496
403,40.908
404,39.568
405,43.044
406,40.110
407,40.578
408,39.822
409,41.390
410,39.980
411,43.598
412,39.577
413,39.452
414,40.839
415,43.345
416,38.999
417,41.528
418,38.700
419,42.299
420,40.067
421,42.312
422,37.021
423,42.719
424,39.781
425,38.819
426,39.557
427,39.413
428,38.387
429,37.832
430,36.258
431,41.493
432,37.860
433,40.924
434,35.485
435,37.010
436,35.690
437,37.803
438,40.374
439,39.989
440,38.499
441,37.341
442,36.689
443,37.862
444,35.613
445,39.976
446,37.107
447,36.698
448,38.278
449,34.135
450,37.605
451,35.932
452,35.607
453,37.738
454,35.982
455,35.134
456,38.588
457,35.902
458,37.435
459,33.794
460,39.000
461,36.609
462,37.600
463,34.289
464,37.655
465,38.349
466,36.290
467,37.016
468,35.936
469,35.585
470,35.199
471,36.817
472,34.557
473,35.394
474,37.384
475,35.587
476,34.658
477,36.440
478,33.905
479,34.708
480,35.621
481,35.551
482,34.550
483,36.109
484,33.834
485,35.742
486,33.711
487,34.540
488,36.280
489,35.205
490,34.724
491,33.697
492,34.975
493,34.374
494,36.197
495,34.315
496,33.957
497,35.801
498,34.741
499,35.053
500,37.282
501,32.966
502,35.728
503,34.265
504,34.347
505,32.914
506,35.050
507,33.172
508,37.317
509,34.297
510,34.463
511,33.841
512,33.356
513,32.381
514,32.210
515,33.656
516,32.529
517,31.817
518,31.257
519,33.104
520,32.087
521,33.459
522,30.543
523,30.667
524,30.157
525,32.794
526,33.496
527,31.177
528,33.789
529,30.729
530,29.420
531,32.801
532,28.060
533,28.067
534,30.569
535,29.672
536,30.472
537,32.541
538,31.537
539,29.982
540,29.926
541,32.450
542,28.928
543,30.749
544,29.399
545,29.731
546,28.157
547,30.378
548,30.550
549,31.242
550,27.685
551,28.077
552,29.447
553,26.862
554,28.378
555,29.674
556,28.392
557,29.302
558,26.179
559,27.887
560,26.330
561,27.428
562,29.128
563,29.067
564,27.251
565,28.392
566,25.664
567,27.806
568,28.006
569,28.233
570,27.006
571,25.669
572,27.055
573,25.708
574,27.482
575,27.313
576,25.656
577,25.467
578,25.572
579,26.739
580,24.690
581,25.672
582,25.295
583,24.164
584,24.676
585,23.920
586,25.083
587,24.058
588,24.053
589,24.106
590,23.350
591,23.679
592,24.287
593,22.304
594,24.387
595,22.473
596,23.488
597,23.649
598,23.051
599,21.758
600,23.280
601,23.995
602,23.091
603,22.442
604,23.376
605,22.917
606,22.260
607,22.693
608,21.465
609,21.693
610,21.641
611,20.307
612,21.478
613,21.045
614,21.664
615,21.538
616,21.900
617,20.813
618,21.362
619,20.402
620,20.907
621,20.773
622,20.730
623,21.297
624,20.052
625,21.471
626,20.907
627,19.455
628,20.703
629,19.631
630,20.444
631,20.437
632,19.503
633,20.268
634,20.141
635,19.585
636,20.784
637,19.030
638,18.294
639,18.279
640,19.347
641,19.182
642,19.247
643,18.869
644,17.368
645,18.384
646,19.163
647,17.289
648,19.880
649,17.852
650,18.548
651,19.592
652,17.999
653,18.195
654,17.742
655,18.386
656,18.094
657,17.770
658,16.533
659,17.100
660,16.417
661,17.348
662,16.993
663,17.395
664,16.453
665,16.003
666,16.223
667,16.230
668,15.982
669,18.893
670,17.308
671,16.379
672,16.793
673,15.920
674,17.074
675,14.737
676,15.536
677,14.724
678,15.205
679,15.753
680,15.161
681,15.764
682,14.966
683,15.297
684,13.980
685,15.119
686,15.364
687,14.573
688,15.193
689,14.341
690,14.374
691,14.572
692,13.411
693,15.093
694,14.504
695,14.318
696,13.339
697,13.897
698,13.621
699,13.610
700,13.643
701,13.491
702,12.845
703,13.903
704,14.759
705,13.343
706,12.833
707,13.106
708,12.568
709,13.435
710,12.674
711,13.556
712,12.511
713,13.047
714,12.857
715,12.343
716,11.692
717,12.303
718,11.971
719,12.205
720,12.303
721,12.757
722,11.687
723,11.991
724,12.020
725,11.318
726,12.315
727,10.984
728,11.266
729,12.492
730,12.447
731,11.760
732,11.676
733,11.796
734,12.094
735,10.731
736,11.536
737,11.266
738,10.880
739,11.226
740,10.760
741,11.202
742,10.551
743,10.456
744,10.881
745,10.978
746,10.082
747,10.149
748,9.944
749,11.006
750,9.837
751,9.843
752,11.315
753,10.138
754,10.203
755,9.132
756,10.299
757,9.614
758,9.659
759,9.678
760,10.405
761,9.363
762,10.130
763,8.727
764,9.963
765,9.593
766,9.180
767,9.446
768,9.567
769,9.803
770,8.808
771,9.770
772,9.023
773,9.165
774,9.372
775,8.485
776,8.577
777,8.127
778,8.511
779,8.459
780,8.690
781,8.492
782,8.419
783,8.049
784,8.967
785,7.881
786,8.407
787,7.937
788,8.275
789,7.910
790,7.453
791,8.217
792,7.548
793,7.528
794,7.803
795,7.512
796,7.393
797,7.776
798,7.071
799,7.426
800,7.863
801,7.126
802,7.176
803,7.317
804,7.393
805,7.479
806,7.584
807,7.018
808,7.117
809,6.726
810,7.316
811,7.824
812,6.406
813,6.689
814,6.925
815,6.716
816,7.152
817,6.750
818,6.753
819,6.516
820,6.627
821,6.382
822,5.601
823,5.816
824,6.127
825,6.281
826,6.020
827,6.383
828,6.180
829,6.050
830,6.407
831,5.426
832,6.506
833,5.824
834,5.772
835,5.510
836,5.166
837,5.496
838,5.718
839,6.206
840,5.132
841,5.255
842,5.535
843,5.435
844,5.054
845,5.254
846,5.753
847,4.866
848,4.930
849,5.084
850,5.057
851,4.711
852,4.570
853,4.499
854,5.056
855,4.637
856,4.851
857,4.639
858,4.806
859,4.903
860,5.323
861,3.919
862,4.406
863,4.603
864,4.154
865,3.930
866,4.325
867,4.437
868,3.877
869,4.194
870,4.431
871,4.318
872,4.003
873,3.859
874,4.188
875,3.691
876,4.290
877,4.151
878,4.498
879,3.663
880,3.715
881,3.894
882,3.591
883,3.625
884,3.703
885,3.215
886,3.755
887,4.220
888,3.533
889,3.316
890,3.663
891,3.357
892,3.268
893,3.234
894,3.144
895,3.175
896,3.554
897,3.492
898,3.325
899,3.367
900,3.080
901,2.806
902,2.725
903,3.114
904,2.753
905,2.909
906,2.712
907,3.061
908,2.997
909,2.972
910,2.718
911,2.658
912,2.581
913,2.799
914,2.568
915,2.773
916,2.557
917,2.383
918,2.463
919,2.614
920,2.738
921,2.526
922,2.227
923,2.441
924,2.174
925,1.994
926,2.259
927,1.987
928,2.012
929,2.106
930,2.149
931,1.949
932,1.899
933,1.695
934,2.087
935,2.061
936,2.093
937,1.975
938,1.820
939,1.996
940,1.654
941,2.043
942,2.074
943,1.780
944,1.666
945,1.628
946,1.581
947,1.803
948,1.351
949,1.445
950,1.809
951,1.587
952,1.747
953,1.506
954,1.421
955,1.349
956,1.369
957,1.453
958,1.210
959,1.237
960,1.530
961,1.172
962,1.191
963,1.256
964,1.297
965,1.145
966,1.164
967,1.138
968,0.904
969,1.219
970,1.054
971,1.050
972,1.122
973,0.991
974,1.079
975,0.916
976,0.706
977,0.926
978,0.894
979,0.729
980,0.912
981,0.745
982,0.745
983,0.566
984,0.674
985,0.730
986,0.764
987,0.621
988,0.653
989,0.513
990,0.637
991,0.592
992,0.627
993,0.617
994,0.450
995,0.548
996,0.430
997,0.447
998,0.380
999,0.426
1000,0.426
1001,0.465
1002,0.399
1003,0.375
1004,0.369
1005,0.317
1006,0.249
1007,0.207
1008,0.283
1009,0.250
1010,0.204
1011,0.164
1012,0.163
1013,0.181
1014,0.062
1015,0.062
1016,0.070
1017,0.106
1018,0.063
1019,0.060
1020,0.062
1021,0.020
1022,0.014
