\relax 
\providecommand\hyper@newdestlabel[2]{}
\providecommand\HyperFirstAtBeginDocument{\AtBeginDocument}
\HyperFirstAtBeginDocument{\ifx\hyper@anchor\@undefined
\global\let\oldcontentsline\contentsline
\gdef\contentsline#1#2#3#4{\oldcontentsline{#1}{#2}{#3}}
\global\let\oldnewlabel\newlabel
\gdef\newlabel#1#2{\newlabelxx{#1}#2}
\gdef\newlabelxx#1#2#3#4#5#6{\oldnewlabel{#1}{{#2}{#3}}}
\AtEndDocument{\ifx\hyper@anchor\@undefined
\let\contentsline\oldcontentsline
\let\newlabel\oldnewlabel
\fi}
\fi}
\global\let\hyper@last\relax 
\gdef\HyperFirstAtBeginDocument#1{#1}
\providecommand\HyField@AuxAddToFields[1]{}
\providecommand\HyField@AuxAddToCoFields[2]{}
\citation{NAVA2015}
\newlabel{sec:description}{{}{1}{Segmentation of 2D localized \textit {Drosophila} egg chambers}{section*.1}{}}
\@writefile{loa}{\contentsline {algocf}{\numberline {1}{\ignorespaces Construction of a supertexton dictionary\relax }}{1}{algocf.1}}
\newlabel{alg:alg_01}{{1}{1}{Segmentation of 2D localized \textit {Drosophila} egg chambers}{algocf.1}{}}
\citation{SMITH2009}
\@writefile{loa}{\contentsline {algocf}{\numberline {2}{\ignorespaces 2D Segmentation of a \textit  {Drosophila} egg chamber\relax }}{2}{algocf.2}}
\newlabel{alg:alg_02}{{2}{2}{Segmentation of 2D localized \textit {Drosophila} egg chambers}{algocf.2}{}}
\newlabel{sec:ray_feature}{{3}{2}{Rey feature descriptor}{section*.5}{}}
\newlabel{eq:eq_1}{{1}{2}{Rey feature descriptor}{equation.0.1}{}}
\@writefile{lof}{\contentsline {figure}{\numberline {1}{\ignorespaces Examples of segmented Drosophila egg chambers\relax }}{3}{figure.caption.2}}
\providecommand*\caption@xref[2]{\@setref\relax\@undefined{#1}}
\newlabel{fig:fig_1}{{1}{3}{Examples of segmented Drosophila egg chambers\relax }{figure.caption.2}{}}
\@writefile{lof}{\contentsline {figure}{\numberline {2}{\ignorespaces Examples of segmentation of full slices of \textit  {Drosophila} germarium.\relax }}{4}{figure.caption.3}}
\newlabel{fig:fig_2a}{{2}{4}{Examples of segmentation of full slices of \textit {Drosophila} germarium.\relax }{figure.caption.3}{}}
\@writefile{lof}{\contentsline {figure}{\numberline {2}{\ignorespaces (Cont...) Examples of segmentation of full slices of \textit  {Drosophila} germarium.\relax }}{5}{figure.caption.4}}
\newlabel{fig:fig_2b}{{2}{5}{(Cont...) Examples of segmentation of full slices of \textit {Drosophila} germarium.\relax }{figure.caption.4}{}}
\@writefile{lof}{\contentsline {figure}{\numberline {3}{\ignorespaces Diagram of the original ray feature descriptor.\relax }}{6}{figure.caption.6}}
\newlabel{fig:fig_3}{{3}{6}{Diagram of the original ray feature descriptor.\relax }{figure.caption.6}{}}
\@writefile{lof}{\contentsline {figure}{\numberline {4}{\ignorespaces Ray feature distances. \textbf  {(a)} Ray features depicted on the segmented images and \textbf  {(b)} distances from the center to the nearest follicle cell on the direction of $\theta $.\relax }}{7}{figure.caption.7}}
\newlabel{fig:fig_4}{{4}{7}{Ray feature distances. \textbf {(a)} Ray features depicted on the segmented images and \textbf {(b)} distances from the center to the nearest follicle cell on the direction of $\theta $.\relax }{figure.caption.7}{}}
\@writefile{lof}{\contentsline {subfigure}{\numberline{(a)}{\ignorespaces {}}}{7}{figure.caption.7}}
\@writefile{lof}{\contentsline {subfigure}{\numberline{(b)}{\ignorespaces {}}}{7}{figure.caption.7}}
\@writefile{lof}{\contentsline {figure}{\numberline {5}{\ignorespaces Ray feature distances on full slice. \textbf  {(a)} ray distances painted on full slices and \textbf  {(b)} distances in number of pixels from the center to the nearest follicle cell on the direction of $\theta $.\relax }}{8}{figure.caption.8}}
\newlabel{fig:fig_5}{{5}{8}{Ray feature distances on full slice. \textbf {(a)} ray distances painted on full slices and \textbf {(b)} distances in number of pixels from the center to the nearest follicle cell on the direction of $\theta $.\relax }{figure.caption.8}{}}
\@writefile{lof}{\contentsline {subfigure}{\numberline{(e)}{\ignorespaces {}}}{8}{figure.caption.8}}
\@writefile{lof}{\contentsline {subfigure}{\numberline{(f)}{\ignorespaces {}}}{8}{figure.caption.8}}
\@writefile{lof}{\contentsline {subfigure}{\numberline{(a)}{\ignorespaces {}}}{8}{figure.caption.8}}
\@writefile{lof}{\contentsline {subfigure}{\numberline{(b)}{\ignorespaces {}}}{8}{figure.caption.8}}
\bibstyle{alpha}
\bibdata{references}
\bibcite{NAVA2015}{NKss}
\bibcite{SMITH2009}{SCL09}
\newlabel{LastPage}{{}{9}{}{page.9}{}}
\xdef\lastpage@lastpage{9}
\xdef\lastpage@lastpageHy{9}
