\begin{thebibliography}{SCL09}

\bibitem[NKss]{NAVA2015}
R.~Nava and J.~Kybic.
\newblock Supertexton-based segmentation in early {Drosophila} oogenesis.
\newblock In {\em IEEE International Conference Image Processing (ICIP)}, (in
  press).

\bibitem[SCL09]{SMITH2009}
K.~Smith, A.~Carleton, and V.~Lepetit.
\newblock Fast ray features for learning irregular shapes.
\newblock In {\em IEEE 12th International Conference on Computer Vision}, pages
  397--404, 2009.

\end{thebibliography}
