\relax 
\providecommand\hyper@newdestlabel[2]{}
\providecommand\HyperFirstAtBeginDocument{\AtBeginDocument}
\HyperFirstAtBeginDocument{\ifx\hyper@anchor\@undefined
\global\let\oldcontentsline\contentsline
\gdef\contentsline#1#2#3#4{\oldcontentsline{#1}{#2}{#3}}
\global\let\oldnewlabel\newlabel
\gdef\newlabel#1#2{\newlabelxx{#1}#2}
\gdef\newlabelxx#1#2#3#4#5#6{\oldnewlabel{#1}{{#2}{#3}}}
\AtEndDocument{\ifx\hyper@anchor\@undefined
\let\contentsline\oldcontentsline
\let\newlabel\oldnewlabel
\fi}
\fi}
\global\let\hyper@last\relax 
\gdef\HyperFirstAtBeginDocument#1{#1}
\providecommand\HyField@AuxAddToFields[1]{}
\providecommand\HyField@AuxAddToCoFields[2]{}
\citation{NAVA2015}
\citation{SMITH2009}
\citation{SMITH2009}
\newlabel{sec:rayfeatures}{{}{2}{Ray Features}{section*.1}{}}
\newlabel{eq:eq_1}{{1}{2}{Ray Features}{equation.0.1}{}}
\newlabel{eq:eq_2}{{2}{2}{Ray Features}{equation.0.2}{}}
\newlabel{sec:rayfeaturehistograms}{{4}{2}{Ray Feature Histograms}{section*.3}{}}
\newlabel{eq:eq_3}{{3}{2}{Ray Feature Histograms}{equation.0.3}{}}
\newlabel{eq:eq_4}{{4}{2}{Ray Feature Histograms}{equation.0.4}{}}
\providecommand*\caption@xref[2]{\@setref\relax\@undefined{#1}}
\newlabel{fig:fig_1a}{{1(a)}{3}{Subfigure 1(a)}{subfigure.1.1}{}}
\newlabel{sub@fig:fig_1a}{{(a)}{3}{Subfigure 1(a)\relax }{subfigure.1.1}{}}
\newlabel{fig:fig_1b}{{1(b)}{3}{Subfigure 1(b)}{subfigure.1.2}{}}
\newlabel{sub@fig:fig_1b}{{(b)}{3}{Subfigure 1(b)\relax }{subfigure.1.2}{}}
\@writefile{lof}{\contentsline {figure}{\numberline {1}{\ignorespaces Ray feature schemes. $D_1$ represents the distance from the point $P_1$ to $L_1$, which is a follicle cell. \textbf  {(a)} 2D ray feature distance. \textbf  {(b)} 3D ray feature distance.\relax }}{3}{figure.caption.2}}
\newlabel{fig:fig_1}{{1}{3}{Ray feature schemes. $D_1$ represents the distance from the point $P_1$ to $L_1$, which is a follicle cell. \textbf {(a)} 2D ray feature distance. \textbf {(b)} 3D ray feature distance.\relax }{figure.caption.2}{}}
\@writefile{lof}{\contentsline {subfigure}{\numberline{(a)}{\ignorespaces {}}}{3}{figure.caption.2}}
\@writefile{lof}{\contentsline {subfigure}{\numberline{(b)}{\ignorespaces {}}}{3}{figure.caption.2}}
\@writefile{lof}{\contentsline {figure}{\numberline {2}{\ignorespaces Examples of positive samples of 2D Ray features on full slices. Yellow lines represent the paths from the selected point to the closest follicle cell.\relax }}{4}{figure.caption.4}}
\newlabel{fig:fig_2}{{2}{4}{Examples of positive samples of 2D Ray features on full slices. Yellow lines represent the paths from the selected point to the closest follicle cell.\relax }{figure.caption.4}{}}
\@writefile{lof}{\contentsline {figure}{\numberline {3}{\ignorespaces Examples of negative samples of 2D Ray features on full slices. Yellow lines represent the rays from a exterior point to the closes follicle cell in the direction of $\theta $.\relax }}{4}{figure.caption.5}}
\newlabel{fig:fig_3}{{3}{4}{Examples of negative samples of 2D Ray features on full slices. Yellow lines represent the rays from a exterior point to the closes follicle cell in the direction of $\theta $.\relax }{figure.caption.5}{}}
\@writefile{lof}{\contentsline {figure}{\numberline {4}{\ignorespaces Mean distance histograms using 2D ray features. DM represents the distances from a point to the closest border cell over 64 orientations. Blue bars represent distances from interior points, whereas yellow ones represent distances from exterior points.\relax }}{5}{figure.caption.6}}
\newlabel{fig:fig_4}{{4}{5}{Mean distance histograms using 2D ray features. DM represents the distances from a point to the closest border cell over 64 orientations. Blue bars represent distances from interior points, whereas yellow ones represent distances from exterior points.\relax }{figure.caption.6}{}}
\newlabel{eq:eq_5}{{5}{5}{Ray Feature Histograms}{equation.0.5}{}}
\newlabel{eq:eq_6}{{6}{5}{Ray Feature Histograms}{equation.0.6}{}}
\@writefile{lof}{\contentsline {figure}{\numberline {5}{\ignorespaces Label histograms using 2D ray features. Blue bars represent labels of interior points, whereas yellow bars represent labels of exterior points.\relax }}{6}{figure.caption.7}}
\newlabel{fig:fig_5}{{5}{6}{Label histograms using 2D ray features. Blue bars represent labels of interior points, whereas yellow bars represent labels of exterior points.\relax }{figure.caption.7}{}}
\newlabel{sec:circlelabelhistograms}{{12}{6}{Circle Label Histograms}{section*.9}{}}
\newlabel{eq:eq_7}{{7}{6}{Circle Label Histograms}{equation.0.7}{}}
\@writefile{lof}{\contentsline {figure}{\numberline {6}{\ignorespaces Examples of 2D Ray Features on a germarium. Note that under some circumstances the rays go beyond the egg chambers.\relax }}{7}{figure.caption.8}}
\newlabel{fig:fig_6}{{6}{7}{Examples of 2D Ray Features on a germarium. Note that under some circumstances the rays go beyond the egg chambers.\relax }{figure.caption.8}{}}
\@writefile{lof}{\contentsline {figure}{\numberline {7}{\ignorespaces Initial estimation of egg ellipses using ray features. Note that the goal is to estimate an ellipse not to detect the egg chamber shape.\relax }}{8}{figure.caption.10}}
\newlabel{fig:fig_7}{{7}{8}{Initial estimation of egg ellipses using ray features. Note that the goal is to estimate an ellipse not to detect the egg chamber shape.\relax }{figure.caption.10}{}}
\@writefile{lof}{\contentsline {figure}{\numberline {8}{\ignorespaces Four concentric circles are built to characterize interior points. For each circle, a label histogram is built according the pixels that belong to the corresponding circle. \textbf  {Top Row}: examples of interior points. \textbf  {Bottom row}: examples of exterior points.\relax }}{9}{figure.caption.11}}
\newlabel{fig:fig_8}{{8}{9}{Four concentric circles are built to characterize interior points. For each circle, a label histogram is built according the pixels that belong to the corresponding circle. \textbf {Top Row}: examples of interior points. \textbf {Bottom row}: examples of exterior points.\relax }{figure.caption.11}{}}
\@writefile{lof}{\contentsline {figure}{\numberline {9}{\ignorespaces Average circle label histograms. Blue bars represent labels of interior points, while yellow bars represent labels of exterior points. \textbf  {(a)} $CLH_{0}$, \textbf  {(b)} $CLH_{0}$, \textbf  {(c)} $CLH_{0}$, and \textbf  {(d)} $CLH_{0}$.\relax }}{10}{figure.caption.12}}
\newlabel{fig:fig_9}{{9}{10}{Average circle label histograms. Blue bars represent labels of interior points, while yellow bars represent labels of exterior points. \textbf {(a)} $CLH_{0}$, \textbf {(b)} $CLH_{0}$, \textbf {(c)} $CLH_{0}$, and \textbf {(d)} $CLH_{0}$.\relax }{figure.caption.12}{}}
\@writefile{lof}{\contentsline {subfigure}{\numberline{(a)}{\ignorespaces {}}}{10}{figure.caption.12}}
\@writefile{lof}{\contentsline {subfigure}{\numberline{(b)}{\ignorespaces {}}}{10}{figure.caption.12}}
\@writefile{lof}{\contentsline {subfigure}{\numberline{(c)}{\ignorespaces {}}}{10}{figure.caption.12}}
\@writefile{lof}{\contentsline {subfigure}{\numberline{(d)}{\ignorespaces {}}}{10}{figure.caption.12}}
\newlabel{sec:3drayfeatures}{{16}{11}{3D Ray Features}{section*.13}{}}
\newlabel{eq:eq_8}{{8}{11}{3D Ray Features}{equation.0.8}{}}
\newlabel{eq:eq_9}{{9}{11}{3D Ray Features}{equation.0.9}{}}
\@writefile{lof}{\contentsline {figure}{\numberline {10}{\ignorespaces Visualization of 3D ray features over $\theta $ and $\phi $.\relax }}{11}{figure.caption.14}}
\newlabel{fig:fig_10}{{10}{11}{Visualization of 3D ray features over $\theta $ and $\phi $.\relax }{figure.caption.14}{}}
\@writefile{lof}{\contentsline {subfigure}{\numberline{(a)}{\ignorespaces {}}}{11}{figure.caption.14}}
\@writefile{lof}{\contentsline {subfigure}{\numberline{(b)}{\ignorespaces {}}}{11}{figure.caption.14}}
\@writefile{lof}{\contentsline {figure}{\numberline {11}{\ignorespaces 3D ray features in a germarium. Examples of \textbf  {(a)} interior points and \textbf  {(b)} exterior points.\relax }}{12}{figure.caption.15}}
\newlabel{fig:fig_11}{{11}{12}{3D ray features in a germarium. Examples of \textbf {(a)} interior points and \textbf {(b)} exterior points.\relax }{figure.caption.15}{}}
\@writefile{lof}{\contentsline {subfigure}{\numberline{(a)}{\ignorespaces {}}}{12}{figure.caption.15}}
\@writefile{lof}{\contentsline {subfigure}{\numberline{(b)}{\ignorespaces {}}}{12}{figure.caption.15}}
\newlabel{sec:spherehistograms}{{18}{13}{Sphere Histograms}{section*.16}{}}
\@writefile{lof}{\contentsline {figure}{\numberline {12}{\ignorespaces \textbf  {(a)} and \textbf  {(b)} .\relax }}{13}{figure.caption.17}}
\newlabel{fig:fig_12}{{12}{13}{\textbf {(a)} and \textbf {(b)} .\relax }{figure.caption.17}{}}
\@writefile{lof}{\contentsline {subfigure}{\numberline{(a)}{\ignorespaces {}}}{13}{figure.caption.17}}
\@writefile{lof}{\contentsline {subfigure}{\numberline{(b)}{\ignorespaces {}}}{13}{figure.caption.17}}
\@writefile{lof}{\contentsline {figure}{\numberline {13}{\ignorespaces \textbf  {(a)} , \textbf  {(b)} , \textbf  {(c)} , \textbf  {(d)} , and \textbf  {(d)}.\relax }}{14}{figure.caption.18}}
\newlabel{fig:fig_13}{{13}{14}{\textbf {(a)} , \textbf {(b)} , \textbf {(c)} , \textbf {(d)} , and \textbf {(d)}.\relax }{figure.caption.18}{}}
\@writefile{lof}{\contentsline {subfigure}{\numberline{(a)}{\ignorespaces {}}}{14}{figure.caption.18}}
\@writefile{lof}{\contentsline {subfigure}{\numberline{(b)}{\ignorespaces {}}}{14}{figure.caption.18}}
\@writefile{lof}{\contentsline {subfigure}{\numberline{(c)}{\ignorespaces {}}}{14}{figure.caption.18}}
\@writefile{lof}{\contentsline {subfigure}{\numberline{(d)}{\ignorespaces {}}}{14}{figure.caption.18}}
\@writefile{lof}{\contentsline {subfigure}{\numberline{(e)}{\ignorespaces {}}}{14}{figure.caption.18}}
\@writefile{lof}{\contentsline {figure}{\numberline {14}{\ignorespaces \textbf  {(a)} and \textbf  {(b)} .\relax }}{15}{figure.caption.19}}
\newlabel{fig:fig_14}{{14}{15}{\textbf {(a)} and \textbf {(b)} .\relax }{figure.caption.19}{}}
\@writefile{lof}{\contentsline {subfigure}{\numberline{(a)}{\ignorespaces {}}}{15}{figure.caption.19}}
\@writefile{lof}{\contentsline {subfigure}{\numberline{(b)}{\ignorespaces {}}}{15}{figure.caption.19}}
\@writefile{lof}{\contentsline {figure}{\numberline {15}{\ignorespaces \textbf  {(a)} , \textbf  {(b)} , \textbf  {(c)} , \textbf  {(d)} , and \textbf  {(d)}.\relax }}{16}{figure.caption.20}}
\newlabel{fig:fig_15}{{15}{16}{\textbf {(a)} , \textbf {(b)} , \textbf {(c)} , \textbf {(d)} , and \textbf {(d)}.\relax }{figure.caption.20}{}}
\@writefile{lof}{\contentsline {subfigure}{\numberline{(a)}{\ignorespaces {}}}{16}{figure.caption.20}}
\@writefile{lof}{\contentsline {subfigure}{\numberline{(b)}{\ignorespaces {}}}{16}{figure.caption.20}}
\@writefile{lof}{\contentsline {subfigure}{\numberline{(c)}{\ignorespaces {}}}{16}{figure.caption.20}}
\@writefile{lof}{\contentsline {subfigure}{\numberline{(d)}{\ignorespaces {}}}{16}{figure.caption.20}}
\@writefile{lof}{\contentsline {subfigure}{\numberline{(e)}{\ignorespaces {}}}{16}{figure.caption.20}}
\bibstyle{alpha}
\bibdata{references}
\bibcite{NAVA2015}{NK15}
\bibcite{SMITH2009}{SCL09}
\newlabel{LastPage}{{}{17}{}{page.17}{}}
\xdef\lastpage@lastpage{17}
\xdef\lastpage@lastpageHy{17}
