\relax 
\citation{TOMANCAK2002}
\citation{ARIAS2008}
\citation{MONTELL2003}
\citation{CASTRO2011}
\citation{XIONG2006a}
\citation{CHEN2006}
\citation{GHITA2014}
\citation{LUCCHI2012}
\select@language{english}
\@writefile{toc}{\select@language{english}}
\@writefile{lof}{\select@language{english}}
\@writefile{lot}{\select@language{english}}
\select@language{english}
\@writefile{toc}{\select@language{english}}
\@writefile{lof}{\select@language{english}}
\@writefile{lot}{\select@language{english}}
\@writefile{toc}{\contentsline {section}{\numberline {1} Introduction}{1}}
\newlabel{sec:intro}{{1}{1}}
\@writefile{lof}{\contentsline {figure}{\numberline {1}{\ignorespaces Egg chamber development during \textit  {Drosophila} oogenesis. Note that egg chambers become more mature moving to the right}}{1}}
\newlabel{fig:fig_1}{{1}{1}}
\citation{VARMA2005}
\citation{SRISUK2014}
\citation{JAVED2011}
\citation{ACHANTA2012}
\citation{LEUNG2001}
\@writefile{lof}{\contentsline {figure}{\numberline {2}{\ignorespaces Pipeline of our proposal. Each superpixel is transform into a 18-length vector by taking the mean and the standard deviation of the responses of the LM filter bank. Then, a dictionary is built by clustering representative feature vectors per class, such clusters are called supertextons.}}{2}}
\newlabel{fig:fig_3}{{2}{2}}
\@writefile{toc}{\contentsline {section}{\numberline {2} Methodology}{2}}
\newlabel{sec:metho}{{2}{2}}
\@writefile{toc}{\contentsline {subsection}{\numberline {2.1} Data pre-processing}{2}}
\@writefile{toc}{\contentsline {subsection}{\numberline {2.2} Superpixel segmentation}{2}}
\@writefile{toc}{\contentsline {subsection}{\numberline {2.3} Supertexton dictionary}{2}}
\bibstyle{IEEEbib}
\bibdata{references}
\bibcite{TOMANCAK2002}{1}
\bibcite{ARIAS2008}{2}
\bibcite{MONTELL2003}{3}
\bibcite{CASTRO2011}{4}
\@writefile{lot}{\contentsline {table}{\numberline {1}{\ignorespaces Classification results of supertextons against segmentation without superpixels. To assess the performance we used leave-one-out cross-validation. The values represent mean rates after the classification of 30 images. All data are expressed in $(\%)$. The values between parenthesis represent standard deviations. Bold values represent the best rates.}}{3}}
\newlabel{tab:tab_1}{{1}{3}}
\newlabel{eq:eq_1}{{1}{3}}
\@writefile{toc}{\contentsline {subsection}{\numberline {2.4} Classification}{3}}
\@writefile{toc}{\contentsline {section}{\numberline {3} Experimental Results}{3}}
\newlabel{sec:exp}{{3}{3}}
\@writefile{toc}{\contentsline {section}{\numberline {4} Conclusions}{3}}
\newlabel{sec:concl}{{4}{3}}
\@writefile{toc}{\contentsline {section}{\numberline {5} References}{3}}
\bibcite{XIONG2006a}{5}
\bibcite{CHEN2006}{6}
\bibcite{GHITA2014}{7}
\bibcite{LUCCHI2012}{8}
\bibcite{VARMA2005}{9}
\bibcite{SRISUK2014}{10}
\bibcite{JAVED2011}{11}
\bibcite{ACHANTA2012}{12}
\bibcite{LEUNG2001}{13}
\@writefile{lof}{\contentsline {figure}{\numberline {3}{\ignorespaces Examples of segmentation in \textit  {Drosophila} egg chambers. \textbf  {(a)} the original egg chamber; \textbf  {(b)} the corresponding ground-truth; \textbf  {(c)} segmentation with supertextons; \textbf  {(d)} supertexton segmentation over the original image; \textbf  {(e)} segmentation without superpixels; and \textbf  {(f)} segmentation without superpixel over the original image. Note that the use of superpixels minimize the noise effect.}}{4}}
\@writefile{lof}{\contentsline {subfigure}{\numberline{(a)}{\ignorespaces {}}}{4}}
\@writefile{lof}{\contentsline {subfigure}{\numberline{(b)}{\ignorespaces {}}}{4}}
\@writefile{lof}{\contentsline {subfigure}{\numberline{(c)}{\ignorespaces {}}}{4}}
\@writefile{lof}{\contentsline {subfigure}{\numberline{(d)}{\ignorespaces {}}}{4}}
\@writefile{lof}{\contentsline {subfigure}{\numberline{(e)}{\ignorespaces {}}}{4}}
\@writefile{lof}{\contentsline {subfigure}{\numberline{(f)}{\ignorespaces {}}}{4}}
\newlabel{fig:fig_4}{{3}{4}}
