\relax 
\citation{GOLD2015}
\citation{TUBAIKH2010}
\citation{GALBAN2012}
\citation{SVERZELLATI2013}
\citation{NAVA2014}
\citation{SORENSEN2010}
\citation{OJALA2002}
\citation{NAVA2014}
\citation{DHARMA2014}
\citation{AZIM2014}
\citation{SORENSEN2010}
\citation{SORENSEN2010}
\citation{SORENSEN2010}
\citation{CHABAT2003}
\citation{HANSELL2008}
\select@language{english}
\@writefile{toc}{\select@language{english}}
\@writefile{lof}{\select@language{english}}
\@writefile{lot}{\select@language{english}}
\providecommand \oddpage@label [2]{}
\select@language{english}
\@writefile{toc}{\select@language{english}}
\@writefile{lof}{\select@language{english}}
\@writefile{lot}{\select@language{english}}
\@writefile{toc}{\contentsline {section}{\numberline {I}Introduction}{1}}
\newlabel{sec:introduction}{{I}{1}}
\newlabel{fig:figure_E1}{{1(a)}{1}}
\newlabel{sub@fig:figure_E1}{{(a)}{1}}
\newlabel{fig:figure_E2}{{1(b)}{1}}
\newlabel{sub@fig:figure_E2}{{(b)}{1}}
\newlabel{fig:figure_E3}{{1(c)}{1}}
\newlabel{sub@fig:figure_E3}{{(c)}{1}}
\@writefile{lof}{\contentsline {figure}{\numberline {1}{\ignorespaces First row shows lung tissue ROIs from the computed tomography emphysema database \cite  {SORENSEN2010}. Second row shows red squares drawn and magnified by a factor of 4. \textbf  {(a)} NT; \textbf  {(b)} CL; and \textbf  {(c)} PS.}}{1}}
\@writefile{lof}{\contentsline {subfigure}{\numberline{(a)}{\ignorespaces {}}}{1}}
\@writefile{lof}{\contentsline {subfigure}{\numberline{(b)}{\ignorespaces {}}}{1}}
\@writefile{lof}{\contentsline {subfigure}{\numberline{(c)}{\ignorespaces {}}}{1}}
\newlabel{fig:figure_E}{{1}{1}}
\citation{FIELD1987}
\citation{ANDRLE1994}
\citation{SORENSEN2010}
\citation{SORENSEN2010}
\gincltex@bb{resources/figure_1.tex}{0}{0}{647.22281}{363.9169}
\citation{FIELD1987}
\citation{NAVA2011}
\citation{ANDRLE1994}
\citation{HUANG2001}
\@writefile{toc}{\contentsline {section}{\numberline {II}Computed tomography emphysema database}{2}}
\newlabel{sec:image_database}{{II}{2}}
\@writefile{toc}{\contentsline {section}{\numberline {III}Methodology}{2}}
\newlabel{sec:methodology}{{III}{2}}
\@writefile{toc}{\contentsline {subsection}{\numberline {\unhbox \voidb@x \hbox {III-A}}Log-Gabor filters}{2}}
\newlabel{sec:log-gabor-filtes}{{\unhbox \voidb@x \hbox {III-A}}{2}}
\@writefile{lof}{\contentsline {figure}{\numberline {2}{\ignorespaces Log-Gabor filter bank. The contours are shown at full-width at half-amplitude. The scales $\sigma _\rho $ are separated by one octave.}}{2}}
\newlabel{fig:figure_1}{{2}{2}}
\newlabel{eq:eq_1}{{1}{2}}
\newlabel{eq:eq_2}{{2}{2}}
\newlabel{eq:eq_3}{{3}{2}}
\newlabel{eq:eq_4}{{4}{2}}
\gincltex@bb{resources/figure_2.tex}{0}{0}{929.23637}{324.70966}
\citation{NAVA2014}
\citation{SORENSEN2010}
\citation{DUNCAN2005}
\citation{XU2006}
\citation{OSHIRO2012}
\citation{SORENSEN2010}
\citation{NAVA2014}
\citation{AZIM2014}
\citation{IBRAHIM2014}
\gincltex@bb{resources/figure_3_a.tex}{0}{0}{68.19086}{67.85333}
\gincltex@bb{resources/figure_3_b.tex}{0}{0}{68.19086}{67.8266}
\citation{NAVA2014}
\@writefile{lof}{\contentsline {figure}{\numberline {3}{\ignorespaces Schematic illustration of the Difference Y with respect to a single point $A$ given a scale $S$. The difference is determined by the points $B$ and $C$.}}{3}}
\newlabel{fig:figure_2}{{3}{3}}
\@writefile{toc}{\contentsline {subsection}{\numberline {\unhbox \voidb@x \hbox {III-B}}Mean difference technique}{3}}
\newlabel{sec:mean-diff-tech}{{\unhbox \voidb@x \hbox {III-B}}{3}}
\newlabel{eq:eq_5}{{5}{3}}
\@writefile{toc}{\contentsline {subsection}{\numberline {\unhbox \voidb@x \hbox {III-C}}Intensity histogram}{3}}
\newlabel{sec:intensity-histogram}{{\unhbox \voidb@x \hbox {III-C}}{3}}
\@writefile{toc}{\contentsline {subsection}{\numberline {\unhbox \voidb@x \hbox {III-D}}Feature ensemble}{3}}
\newlabel{sec:feature-ensemble}{{\unhbox \voidb@x \hbox {III-D}}{3}}
\@writefile{toc}{\contentsline {subsection}{\numberline {\unhbox \voidb@x \hbox {III-E}}Classification}{3}}
\newlabel{sec:classifier}{{\unhbox \voidb@x \hbox {III-E}}{3}}
\@writefile{toc}{\contentsline {section}{\numberline {IV}Experimental results}{3}}
\newlabel{sec:results}{{IV}{3}}
\@writefile{toc}{\contentsline {section}{\numberline {V}Conclusions}{3}}
\newlabel{sec:conclusions}{{V}{3}}
\bibstyle{IEEEtran}
\bibdata{IEEEBIB}
\bibcite{GOLD2015}{1}
\bibcite{TUBAIKH2010}{2}
\bibcite{GALBAN2012}{3}
\bibcite{SVERZELLATI2013}{4}
\bibcite{NAVA2014}{5}
\bibcite{SORENSEN2010}{6}
\bibcite{OJALA2002}{7}
\bibcite{DHARMA2014}{8}
\bibcite{AZIM2014}{9}
\bibcite{CHABAT2003}{10}
\bibcite{HANSELL2008}{11}
\bibcite{FIELD1987}{12}
\bibcite{ANDRLE1994}{13}
\bibcite{NAVA2011}{14}
\bibcite{HUANG2001}{15}
\bibcite{DUNCAN2005}{16}
\bibcite{XU2006}{17}
\bibcite{OSHIRO2012}{18}
\bibcite{IBRAHIM2014}{19}
\@writefile{lot}{\contentsline {table}{\numberline {I}{\ignorespaces Comparison and classification results of emphysematous tissue. Since the statistical measures are applicable to a binary classification, then we computed one-versus-all, as in \cite  {NAVA2014}. All the data are expressed in (\%). Bold values represent the best results.}}{4}}
\newlabel{tab:tab_1}{{I}{4}}
\newlabel{fig:figure_3_a}{{4(a)}{4}}
\newlabel{sub@fig:figure_3_a}{{(a)}{4}}
\newlabel{fig:figure_3_b}{{4(b)}{4}}
\newlabel{sub@fig:figure_3_b}{{(b)}{4}}
\@writefile{lof}{\contentsline {figure}{\numberline {4}{\ignorespaces Confusion matrices of the proposed ensemble using \textbf  {(a)} random forest and \textbf  {(b)} k-NN classifiers. NT Normal tissue, CL Centrilobular emphysema, and PS Paraseptal emphysema.}}{4}}
\@writefile{lof}{\contentsline {subfigure}{\numberline{(a)}{\ignorespaces {}}}{4}}
\@writefile{lof}{\contentsline {subfigure}{\numberline{(b)}{\ignorespaces {}}}{4}}
\newlabel{fig:figure_3}{{4}{4}}
\@writefile{toc}{\contentsline {section}{References}{4}}
