\relax 
\providecommand \oddpage@label [2]{}
\select@language{english}
\@writefile{toc}{\select@language{english}}
\@writefile{lof}{\select@language{english}}
\@writefile{lot}{\select@language{english}}
\pgfsyspdfmark {pgfid1}{2083194}{1100153}
\newlabel{myenum@1}{{{2}}{2}}
\newlabel{myenum@2}{{{4}}{2}}
\newlabel{myenum@3}{{{2}}{2}}
\newlabel{myenum@4}{{{4}}{2}}
\newlabel{myenum@5}{{{3}}{2}}
