\relax 
\citation{Jain95}
\citation{Balas2015,Wu2015}
\citation{Guo05,Gao2015}
\citation{Sorensen12,Zhang07}
\citation{Shao2014}
\citation{Petrou2006}
\citation{Haralick79}
\citation{Cross83}
\citation{Ojala02}
\citation{Bovik90}
\select@language{english}
\@writefile{toc}{\select@language{english}}
\@writefile{lof}{\select@language{english}}
\@writefile{lot}{\select@language{english}}
\@writefile{toc}{\contentsline {section}{\numberline {1}Introduction}{1}}
\newlabel{sec:introduction}{{1}{1}}
\citation{Mukundan01}
\citation{Teh88}
\citation{Marcos13}
\citation{Nava2013}
\citation{Estudillo2011}
\citation{Bo2013}
\citation{Mukundan04,Nava2015}
\citation{Brodatz66}
\citation{Teh88}
\citation{Nava2015}
\@writefile{toc}{\contentsline {section}{\numberline {2}Orthogonal Bases}{2}}
\newlabel{sec:background}{{2}{2}}
\newlabel{eq:Orthogonality}{{1}{2}}
\newlabel{eq:sum3}{{2}{2}}
\citation{Mukundan01,Mukundan04}
\citation{Marcos13}
\citation{Young01}
\citation{Silvan06,Estudillo2011}
\citation{Martens90}
\newlabel{fig:TchebichefP}{{1(a)}{3}}
\newlabel{sub@fig:TchebichefP}{{(a)}{3}}
\newlabel{fig:HermiteP}{{1(b)}{3}}
\newlabel{sub@fig:HermiteP}{{(b)}{3}}
\@writefile{lof}{\contentsline {figure}{\numberline {1}{\ignorespaces Orthogonal bases. \ref  {sub@fig:TchebichefP} Tchebichef polynomials of order $t_p$ from 0 to 4. \ref  {sub@fig:HermiteP} Hermite analysis functions of order $n$ from 0 to 4.}}{3}}
\@writefile{lof}{\contentsline {subfigure}{\numberline{(a)}{\ignorespaces {}}}{3}}
\@writefile{lof}{\contentsline {subfigure}{\numberline{(b)}{\ignorespaces {}}}{3}}
\newlabel{fig:Poly}{{1}{3}}
\@writefile{toc}{\contentsline {subsection}{\numberline {2.1}Discrete Tchebichef moments}{3}}
\newlabel{eq:equation_1}{{3}{3}}
\newlabel{eq:sum4}{{4}{3}}
\@writefile{toc}{\contentsline {subsection}{\numberline {2.2}Steered Hermite transform}{3}}
\newlabel{eq:sum5}{{5}{3}}
\citation{Silvan06,vanDijk97}
\citation{Silvan06}
\citation{Estudillo2011}
\citation{Haralick79}
\newlabel{fig:D1_DHT_1}{{2(a)}{4}}
\newlabel{sub@fig:D1_DHT_1}{{(a)}{4}}
\newlabel{fig:D1_DHT_S4}{{2(b)}{4}}
\newlabel{sub@fig:D1_DHT_S4}{{(b)}{4}}
\@writefile{lof}{\contentsline {figure}{\numberline {2}{\ignorespaces Steered Hermite coefficients at different scales of analysis and two orders of expansion. \ref  {sub@fig:D1_DHT_1} with scale $H_{\sigma }=4$ and \ref  {sub@fig:D1_DHT_S4} with scale $H_{\sigma }=80$.}}{4}}
\@writefile{lof}{\contentsline {subfigure}{\numberline{(a)}{\ignorespaces {}}}{4}}
\@writefile{lof}{\contentsline {subfigure}{\numberline{(b)}{\ignorespaces {}}}{4}}
\newlabel{fig:DHT}{{2}{4}}
\newlabel{eq:sum8}{{6}{4}}
\newlabel{eq:sum11}{{7}{4}}
\newlabel{eq:Union}{{8}{4}}
\@writefile{toc}{\contentsline {section}{\numberline {3}Finding the window of analysis}{4}}
\newlabel{sec:methodology}{{3}{4}}
\citation{Flanagan65}
\citation{Noll67,Jantti2014}
\citation{Anxu2012}
\citation{Bandari93}
\@writefile{lof}{\contentsline {figure}{\numberline {3}{\ignorespaces Texel size estimation process for the three methodologies proposed.}}{5}}
\newlabel{fig:Texel_diag}{{3}{5}}
\newlabel{eq:Cepstrum}{{9}{5}}
\citation{Brodatz66}
\citation{Vistex02}
\citation{Klette10}
\expandafter \gdef \csname pgfplots@legend@to@name@grouplegend\endcsname {\begingroup \def \pgfplots@legend@to@name {\pgfkeysdef {/pgfplots/every axis legend}{\pgfkeysalso {cells={anchor=center},inner xsep={3pt},inner ysep={2pt},nodes={inner sep=2pt,text depth=0.15em},anchor={north east},shape={rectangle},fill={white},draw={black},at={(0.98,0.98)},column sep={10pt}}}\pgfkeysdef {/pgfplots/every legend image post}{}\def \numplots {3}\def \plotnum {0}\def \plotnumofactualtype {0}\matrix [/pgfplots/every axis legend]{\begingroup \def \pgfplots@draw@image {\def \tikz@plot@handler {\pgfkeys {/pgf/plots/@handler options/.cd, start=\relax , end macro=\relax , point macro=\pgfutil@gobble , jump macro=\relax , special macro=\pgfutil@gobble , point macro=\pgf@plot@line@handler , jump=\global \let \pgf@plotstreampoint \pgf@plot@line@handler@move }\begingroup \escapechar =-1 \edef \pgfplotsplothandlername {\string \pgfplothandlerlineto }\pgfmath@smuggleone \pgfplotsplothandlername \endgroup \def \pgfplotsplothandlerLUAfactory {function(axis, pointmetainputhandler) return pgfplots.GenericPlothandler.new("\pgfplotsplothandlername ", axis,pointmetainputhandler) end}\def \pgfplotsplothandlerLUAvisualizerfactory {pgfplots.defaultPlotVisualizerFactory}}\pgfkeysdef {/pgfplots/legend image code}{\draw [mark repeat=2,mark phase=2,] plot coordinates { (0cm,0cm) (0.3cm,0cm) (0.6cm,0cm)};}\pgfkeysdef {/pgfplots/every legend image post}{}\pgfkeyssetvalue {/pgfplots/mark list fill}{.!80!black}\pgfplots@show@small@legendplots {blue={\pgfkeysnovalue },every mark/.append style={fill=blue!80!black},mark={*}}{}}\ifpgfpicture \pgfplots@draw@image \else \expandafter \ifx \csname tikzappendtofigurename\endcsname \relax \else \begingroup \tikzappendtofigurename {_crossref}\fi \tikz []{\pgfplots@draw@image }\expandafter \ifx \csname tikzappendtofigurename\endcsname \relax \else \endgroup \fi \fi \endgroup \pgfmatrixnextcell \node []{Correlation};\pgfmatrixnextcell \begingroup \def \pgfplots@draw@image {\def \tikz@plot@handler {\pgfkeys {/pgf/plots/@handler options/.cd, start=\relax , end macro=\relax , point macro=\pgfutil@gobble , jump macro=\relax , special macro=\pgfutil@gobble , point macro=\pgf@plot@line@handler , jump=\global \let \pgf@plotstreampoint \pgf@plot@line@handler@move }\begingroup \escapechar =-1 \edef \pgfplotsplothandlername {\string \pgfplothandlerlineto }\pgfmath@smuggleone \pgfplotsplothandlername \endgroup \def \pgfplotsplothandlerLUAfactory {function(axis, pointmetainputhandler) return pgfplots.GenericPlothandler.new("\pgfplotsplothandlername ", axis,pointmetainputhandler) end}\def \pgfplotsplothandlerLUAvisualizerfactory {pgfplots.defaultPlotVisualizerFactory}}\pgfkeysdef {/pgfplots/legend image code}{\draw [mark repeat=2,mark phase=2,] plot coordinates { (0cm,0cm) (0.3cm,0cm) (0.6cm,0cm)};}\pgfkeysdef {/pgfplots/every legend image post}{}\pgfkeyssetvalue {/pgfplots/mark list fill}{.!80!black}\pgfplots@show@small@legendplots {red={\pgfkeysnovalue },every mark/.append style={fill=red!80!black},mark={square*}}{}}\ifpgfpicture \pgfplots@draw@image \else \expandafter \ifx \csname tikzappendtofigurename\endcsname \relax \else \begingroup \tikzappendtofigurename {_crossref}\fi \tikz []{\pgfplots@draw@image }\expandafter \ifx \csname tikzappendtofigurename\endcsname \relax \else \endgroup \fi \fi \endgroup \pgfmatrixnextcell \node []{Four-metrics};\pgfmatrixnextcell \begingroup \def \pgfplots@draw@image {\def \tikz@plot@handler {\pgfkeys {/pgf/plots/@handler options/.cd, start=\relax , end macro=\relax , point macro=\pgfutil@gobble , jump macro=\relax , special macro=\pgfutil@gobble , point macro=\pgf@plot@line@handler , jump=\global \let \pgf@plotstreampoint \pgf@plot@line@handler@move }\begingroup \escapechar =-1 \edef \pgfplotsplothandlername {\string \pgfplothandlerlineto }\pgfmath@smuggleone \pgfplotsplothandlername \endgroup \def \pgfplotsplothandlerLUAfactory {function(axis, pointmetainputhandler) return pgfplots.GenericPlothandler.new("\pgfplotsplothandlername ", axis,pointmetainputhandler) end}\def \pgfplotsplothandlerLUAvisualizerfactory {pgfplots.defaultPlotVisualizerFactory}}\pgfkeysdef {/pgfplots/legend image code}{\draw [mark repeat=2,mark phase=2,] plot coordinates { (0cm,0cm) (0.3cm,0cm) (0.6cm,0cm)};}\pgfkeysdef {/pgfplots/every legend image post}{}\pgfkeyssetvalue {/pgfplots/mark list fill}{.!80!black}\pgfplots@show@small@legendplots {brown!60!black={\pgfkeysnovalue },every mark/.append style={fill=brown!80!black},mark={otimes*}}{}}\ifpgfpicture \pgfplots@draw@image \else \expandafter \ifx \csname tikzappendtofigurename\endcsname \relax \else \begingroup \tikzappendtofigurename {_crossref}\fi \tikz []{\pgfplots@draw@image }\expandafter \ifx \csname tikzappendtofigurename\endcsname \relax \else \endgroup \fi \fi \endgroup \pgfmatrixnextcell \node []{Cepstrum};\\};}\ifpgfpicture \pgfplots@legend@to@name \else \expandafter \ifx \csname tikzappendtofigurename\endcsname \relax \else \begingroup \tikzappendtofigurename {_crossref}\fi \tikz [/pgfplots/every legend to name picture/.try]{\pgfplots@legend@to@name }\expandafter \ifx \csname tikzappendtofigurename\endcsname \relax \else \endgroup \fi \fi \endgroup }
\@writefile{lof}{\contentsline {figure}{\numberline {4}{\ignorespaces Cepstral analysis (CA) applied to a periodic signal. (a) The original signal. (b) The logarithm of the magnitude spectrum and (c) the salient signal in the quefrency domain.}}{6}}
\newlabel{fig:Ceps}{{4}{6}}
\@writefile{toc}{\contentsline {subsection}{\numberline {3.1}Texel size validation}{6}}
\newlabel{sec:validation}{{3.1}{6}}
\@writefile{toc}{\contentsline {section}{\numberline {4}classification results}{6}}
\newlabel{sec:classification}{{4}{6}}
\newlabel{grouplegend}{{\expandafter\protect\csname pgfplots@legend@to@name@grouplegend\endcsname}{7}}
\@writefile{lof}{\contentsline {figure}{\numberline {5}{\ignorespaces Results for the three methodologies on textures with degradation. Results on the first column correspond to examination on the Horizontal axis, while second column correspond to examination on the Vertical axis. }}{7}}
\newlabel{fig:Degradations}{{5}{7}}
\@writefile{lof}{\contentsline {figure}{\numberline {6}{\ignorespaces  (a) Complete image texture D11 from Brodatz, divided by a grid of texels. (b) Tchebichef feature vector corresponding to the complete texture and the first texel and (c) feature vectors corresponding to steered Hermite coefficients.}}{8}}
\@writefile{lof}{\contentsline {subfigure}{\numberline{(a)}{\ignorespaces {}}}{8}}
\@writefile{lof}{\contentsline {subfigure}{\numberline{(b)}{\ignorespaces {}}}{8}}
\@writefile{lof}{\contentsline {subfigure}{\numberline{(c)}{\ignorespaces {}}}{8}}
\newlabel{fig:FeatureVectors}{{6}{8}}
\@writefile{lot}{\contentsline {table}{\numberline {1}{\ignorespaces Texel sizes for training and testing data. Values at each column indicate the number of pixels per side of the texel window computed for the corresponding training and testing subimages. DX value indicates the number of the Brodatz texture.}}{8}}
\newlabel{TexelSizes}{{1}{8}}
\@writefile{lot}{\contentsline {table}{\numberline {2}{\ignorespaces Correct classification rate for DTM's and SHT. The columns indicates the size of window.}}{8}}
\newlabel{CCR}{{2}{8}}
\bibdata{report}
\bibcite{Jain95}{1}
\bibcite{Balas2015}{2}
\bibcite{Wu2015}{3}
\newlabel{fig:DTM_128}{{7(a)}{9}}
\newlabel{sub@fig:DTM_128}{{(a)}{9}}
\newlabel{fig:DTM_64}{{7(b)}{9}}
\newlabel{sub@fig:DTM_64}{{(b)}{9}}
\newlabel{fig:DTM_32}{{7(c)}{9}}
\newlabel{sub@fig:DTM_32}{{(c)}{9}}
\newlabel{fig:DTM_Texel}{{7(d)}{9}}
\newlabel{sub@fig:DTM_Texel}{{(d)}{9}}
\newlabel{fig:Hermite_128}{{7(e)}{9}}
\newlabel{sub@fig:Hermite_128}{{(e)}{9}}
\newlabel{fig:Hermite_64}{{7(f)}{9}}
\newlabel{sub@fig:Hermite_64}{{(f)}{9}}
\newlabel{fig:Hermite_32}{{7(g)}{9}}
\newlabel{sub@fig:Hermite_32}{{(g)}{9}}
\newlabel{fig:Hermite_Texel}{{7(h)}{9}}
\newlabel{sub@fig:Hermite_Texel}{{(h)}{9}}
\@writefile{lof}{\contentsline {figure}{\numberline {7}{\ignorespaces First row displays confusion matrices of (a) 128x128 pixeles, (b) 64x64, (c) 32x32 and (d) texel sizes for DTMs. Second row display confusion matrices of (e) 128x128 pixeles, (f) 64x64, (g)32x32 and (h)texel sizes for SHT.}}{9}}
\@writefile{lof}{\contentsline {subfigure}{\numberline{(a)}{\ignorespaces {}}}{9}}
\@writefile{lof}{\contentsline {subfigure}{\numberline{(b)}{\ignorespaces {}}}{9}}
\@writefile{lof}{\contentsline {subfigure}{\numberline{(c)}{\ignorespaces {}}}{9}}
\@writefile{lof}{\contentsline {subfigure}{\numberline{(d)}{\ignorespaces {}}}{9}}
\@writefile{lof}{\contentsline {subfigure}{\numberline{(e)}{\ignorespaces {}}}{9}}
\@writefile{lof}{\contentsline {subfigure}{\numberline{(f)}{\ignorespaces {}}}{9}}
\@writefile{lof}{\contentsline {subfigure}{\numberline{(g)}{\ignorespaces {}}}{9}}
\@writefile{lof}{\contentsline {subfigure}{\numberline{(h)}{\ignorespaces {}}}{9}}
\newlabel{fig:ConfusionMatrix}{{7}{9}}
\@writefile{toc}{\contentsline {section}{\numberline {5}Conclusions}{9}}
\newlabel{sec:conclusion}{{5}{9}}
\@writefile{toc}{\contentsline {section}{\numberline {6}Acknowledgments}{9}}
\bibcite{Guo05}{4}
\bibcite{Gao2015}{5}
\bibcite{Sorensen12}{6}
\bibcite{Zhang07}{7}
\bibcite{Shao2014}{8}
\bibcite{Petrou2006}{9}
\bibcite{Haralick79}{10}
\bibcite{Cross83}{11}
\bibcite{Ojala02}{12}
\bibcite{Bovik90}{13}
\bibcite{Mukundan01}{14}
\bibcite{Teh88}{15}
\bibcite{Marcos13}{16}
\bibcite{Nava2013}{17}
\bibcite{Estudillo2011}{18}
\bibcite{Bo2013}{19}
\bibcite{Mukundan04}{20}
\bibcite{Nava2015}{21}
\bibcite{Brodatz66}{22}
\bibcite{Young01}{23}
\bibcite{Silvan06}{24}
\bibcite{Martens90}{25}
\bibcite{vanDijk97}{26}
\bibcite{Flanagan65}{27}
\bibcite{Noll67}{28}
\bibcite{Jantti2014}{29}
\bibcite{Anxu2012}{30}
\bibcite{Bandari93}{31}
\bibcite{Vistex02}{32}
\bibcite{Klette10}{33}
\bibstyle{spiebib}
