\relax 
\providecommand\hyper@newdestlabel[2]{}
\providecommand\zref@newlabel[2]{}
\providecommand\HyperFirstAtBeginDocument{\AtBeginDocument}
\HyperFirstAtBeginDocument{\ifx\hyper@anchor\@undefined
\global\let\oldcontentsline\contentsline
\gdef\contentsline#1#2#3#4{\oldcontentsline{#1}{#2}{#3}}
\global\let\oldnewlabel\newlabel
\gdef\newlabel#1#2{\newlabelxx{#1}#2}
\gdef\newlabelxx#1#2#3#4#5#6{\oldnewlabel{#1}{{#2}{#3}}}
\AtEndDocument{\ifx\hyper@anchor\@undefined
\let\contentsline\oldcontentsline
\let\newlabel\oldnewlabel
\fi}
\fi}
\global\let\hyper@last\relax 
\gdef\HyperFirstAtBeginDocument#1{#1}
\providecommand\HyField@AuxAddToFields[1]{}
\providecommand\HyField@AuxAddToCoFields[2]{}
\providecommand\AtEndDvi@Check{}
\AtEndDvi@Check
\providecommand \oddpage@label [2]{}
\@writefile{toc}{\beamer@endinputifotherversion {3.33pt}}
\@writefile{nav}{\beamer@endinputifotherversion {3.33pt}}
\select@language{english}
\@writefile{toc}{\select@language{english}}
\@writefile{lof}{\select@language{english}}
\@writefile{lot}{\select@language{english}}
\@writefile{nav}{\headcommand {\slideentry {0}{0}{1}{1/1}{}{0}}}
\@writefile{nav}{\headcommand {\beamer@framepages {1}{1}}}
\@writefile{nav}{\headcommand {\slideentry {1}{0}{2}{2/2}{}{0}}}
\@writefile{nav}{\headcommand {\beamer@framepages {2}{2}}}
\pgfsyspdfmark {pgfid8}{0}{0}
\@input{talk.aux}
\@writefile{nav}{\headcommand {\partentry {Talk}{1}}}
\@writefile{nav}{\headcommand {\beamer@partpages {1}{2}}}
\@writefile{nav}{\headcommand {\beamer@sectionpages {2}{2}}}
\@writefile{nav}{\headcommand {\beamer@subsectionpages {2}{2}}}
\pgfsyspdfmark {pgfid15}{0}{0}
\pgfsyspdfmark {pgfid19}{0}{0}
\pgfsyspdfmark {pgfid26}{0}{0}
\pgfsyspdfmark {pgfid33}{0}{0}
\pgfsyspdfmark {pgfid40}{0}{0}
\pgfsyspdfmark {pgfid42}{0}{0}
\pgfsyspdfmark {pgfid44}{0}{0}
\pgfsyspdfmark {pgfid46}{0}{0}
\pgfsyspdfmark {pgfid53}{0}{0}
\pgfsyspdfmark {pgfid58}{0}{0}
\pgfsyspdfmark {pgfid63}{0}{0}
\pgfsyspdfmark {pgfid68}{0}{0}
\pgfsyspdfmark {pgfid71}{0}{0}
\pgfsyspdfmark {pgfid76}{0}{0}
\pgfsyspdfmark {pgfid77}{11965337}{7989773}
\pgfsyspdfmark {pgfid78}{14870910}{7989773}
\pgfsyspdfmark {pgfid79}{11188080}{3813323}
\pgfsyspdfmark {pgfid81}{5071652}{-323330}
\pgfsyspdfmark {pgfid82}{0}{0}
\pgfsyspdfmark {pgfid84}{0}{0}
\pgfsyspdfmark {pgfid86}{0}{0}
\pgfsyspdfmark {pgfid87}{4491729}{8724644}
\pgfsyspdfmark {pgfid89}{0}{0}
\pgfsyspdfmark {pgfid93}{0}{0}
\pgfsyspdfmark {pgfid95}{0}{0}
\pgfsyspdfmark {pgfid97}{0}{0}
\pgfsyspdfmark {pgfid104}{0}{0}
\pgfsyspdfmark {pgfid105}{5822835}{9758595}
\pgfsyspdfmark {pgfid111}{0}{0}
\pgfsyspdfmark {pgfid112}{5822835}{9758595}
\pgfsyspdfmark {pgfid118}{0}{0}
\pgfsyspdfmark {pgfid125}{0}{0}
\pgfsyspdfmark {pgfid127}{0}{0}
\pgfsyspdfmark {pgfid128}{22653490}{6146467}
\pgfsyspdfmark {pgfid130}{0}{0}
\pgfsyspdfmark {pgfid132}{0}{0}
\pgfsyspdfmark {pgfid136}{0}{0}
\pgfsyspdfmark {pgfid139}{0}{0}
\pgfsyspdfmark {pgfid142}{0}{0}
\pgfsyspdfmark {pgfid145}{0}{0}
\pgfsyspdfmark {pgfid148}{0}{0}
\pgfsyspdfmark {pgfid156}{0}{0}
\pgfsyspdfmark {pgfid163}{0}{0}
\pgfsyspdfmark {pgfid164}{7989837}{9117133}
\pgfsyspdfmark {pgfid166}{0}{0}
\pgfsyspdfmark {pgfid169}{0}{0}
\pgfsyspdfmark {pgfid172}{0}{0}
\pgfsyspdfmark {pgfid179}{0}{0}
\pgfsyspdfmark {pgfid182}{0}{0}
\bibcite{Gabor1946}{\hyperlink {beamerbibGabor1946}{Gabor, 1946}}
\bibcite{Field1987}{\hyperlink {beamerbibField1987}{Field, 1987}}
\bibcite{Nava2012}{\hyperlink {beamerbibNava2012}{Nava et al., 2012}}
\bibcite{Nava2013}{\hyperlink {beamerbibNava2013}{Nava et al., 2013}}
\bibcite{Nava2014}{\hyperlink {beamerbibNava2014}{Nava et al., 2014}}
\bibcite{Hubel2005}{\hyperlink {beamerbibHubel2005}{Hubel et al., 2005}}
\@writefile{nav}{\headcommand {\slideentry {7}{0}{25}{43/43}{}{1}}}
\@writefile{nav}{\headcommand {\beamer@framepages {43}{43}}}
\pgfsyspdfmark {pgfid183}{0}{0}
\@writefile{nav}{\headcommand {\beamer@partpages {3}{43}}}
\@writefile{nav}{\headcommand {\beamer@subsectionpages {41}{43}}}
\@writefile{nav}{\headcommand {\beamer@sectionpages {41}{43}}}
\@writefile{nav}{\headcommand {\beamer@documentpages {43}}}
\@writefile{nav}{\headcommand {\def \inserttotalframenumber {24}}}
\zref@newlabel{LastPage}{\default{7}\page{43}\abspage{43}}
