\relax 
\providecommand\hyper@newdestlabel[2]{}
\providecommand\zref@newlabel[2]{}
\@writefile{toc}{\beamer@sectionintoc {2}{Introduction}{3}{1}{1}}
\@writefile{nav}{\headcommand {\sectionentry {2}{Introduction}{3}{Introduction}{1}}}
\@writefile{nav}{\headcommand {\beamer@sectionpages {3}{2}}}
\@writefile{nav}{\headcommand {\beamer@subsectionpages {3}{2}}}
\@writefile{nav}{\headcommand {\slideentry {2}{0}{3}{3/3}{}{1}}}
\@writefile{nav}{\headcommand {\beamer@framepages {3}{3}}}
\citation{Hubel2005}
\@writefile{nav}{\headcommand {\slideentry {2}{0}{4}{4/7}{}{1}}}
\@writefile{nav}{\headcommand {\beamer@framepages {4}{7}}}
\@writefile{nav}{\headcommand {\slideentry {2}{0}{5}{8/10}{}{1}}}
\@writefile{nav}{\headcommand {\beamer@framepages {8}{10}}}
\@writefile{toc}{\beamer@sectionintoc {3}{Overcomplete models}{11}{1}{2}}
\@writefile{nav}{\headcommand {\sectionentry {3}{Overcomplete models}{11}{Overcomplete models}{1}}}
\@writefile{nav}{\headcommand {\beamer@sectionpages {3}{10}}}
\@writefile{nav}{\headcommand {\beamer@subsectionpages {3}{10}}}
\@writefile{nav}{\headcommand {\slideentry {3}{0}{6}{11/11}{}{1}}}
\@writefile{nav}{\headcommand {\beamer@framepages {11}{11}}}
\@writefile{nav}{\headcommand {\slideentry {3}{0}{7}{12/14}{}{1}}}
\@writefile{nav}{\headcommand {\beamer@framepages {12}{14}}}
\@writefile{nav}{\headcommand {\slideentry {3}{0}{8}{15/15}{}{1}}}
\@writefile{nav}{\headcommand {\beamer@framepages {15}{15}}}
\@writefile{nav}{\headcommand {\slideentry {3}{0}{9}{16/16}{}{1}}}
\@writefile{nav}{\headcommand {\beamer@framepages {16}{16}}}
\@writefile{nav}{\headcommand {\slideentry {3}{0}{10}{17/17}{}{1}}}
\@writefile{nav}{\headcommand {\beamer@framepages {17}{17}}}
\@writefile{nav}{\headcommand {\slideentry {3}{0}{11}{18/19}{}{1}}}
\@writefile{nav}{\headcommand {\beamer@framepages {18}{19}}}
\@writefile{nav}{\headcommand {\slideentry {3}{0}{12}{20/20}{}{1}}}
\@writefile{nav}{\headcommand {\beamer@framepages {20}{20}}}
\citation{Field1987}
\@writefile{nav}{\headcommand {\slideentry {3}{0}{13}{21/23}{}{1}}}
\@writefile{nav}{\headcommand {\beamer@framepages {21}{23}}}
\@writefile{toc}{\beamer@sectionintoc {4}{Local descriptors}{24}{1}{3}}
\@writefile{nav}{\headcommand {\sectionentry {4}{Local descriptors}{24}{Local descriptors}{1}}}
\@writefile{nav}{\headcommand {\beamer@sectionpages {11}{23}}}
\@writefile{nav}{\headcommand {\beamer@subsectionpages {11}{23}}}
\@writefile{nav}{\headcommand {\slideentry {4}{0}{14}{24/24}{}{1}}}
\@writefile{nav}{\headcommand {\beamer@framepages {24}{24}}}
\@writefile{nav}{\headcommand {\slideentry {4}{0}{15}{25/26}{}{1}}}
\@writefile{nav}{\headcommand {\beamer@framepages {25}{26}}}
\@writefile{toc}{\beamer@sectionintoc {5}{Case study: Chronic Obstructive Pulmonary Disease}{27}{1}{4}}
\@writefile{nav}{\headcommand {\sectionentry {5}{Case study: Chronic Obstructive Pulmonary Disease}{27}{Case study: Chronic Obstructive Pulmonary Disease}{1}}}
\@writefile{nav}{\headcommand {\beamer@sectionpages {24}{26}}}
\@writefile{nav}{\headcommand {\beamer@subsectionpages {24}{26}}}
\@writefile{nav}{\headcommand {\slideentry {5}{0}{16}{27/27}{}{1}}}
\@writefile{nav}{\headcommand {\beamer@framepages {27}{27}}}
\@writefile{nav}{\headcommand {\slideentry {5}{0}{17}{28/30}{}{1}}}
\@writefile{nav}{\headcommand {\beamer@framepages {28}{30}}}
\@writefile{nav}{\headcommand {\slideentry {5}{0}{18}{31/31}{}{1}}}
\@writefile{nav}{\headcommand {\beamer@framepages {31}{31}}}
\@writefile{nav}{\headcommand {\slideentry {5}{0}{19}{32/35}{}{1}}}
\@writefile{nav}{\headcommand {\beamer@framepages {32}{35}}}
\@writefile{nav}{\headcommand {\slideentry {5}{0}{20}{36/36}{}{1}}}
\@writefile{nav}{\headcommand {\beamer@framepages {36}{36}}}
\@writefile{toc}{\beamer@sectionintoc {6}{Results}{37}{1}{5}}
\@writefile{nav}{\headcommand {\sectionentry {6}{Results}{37}{Results}{1}}}
\@writefile{nav}{\headcommand {\beamer@sectionpages {27}{36}}}
\@writefile{nav}{\headcommand {\beamer@subsectionpages {27}{36}}}
\@writefile{nav}{\headcommand {\slideentry {6}{0}{21}{37/37}{}{1}}}
\@writefile{nav}{\headcommand {\beamer@framepages {37}{37}}}
\@writefile{nav}{\headcommand {\slideentry {6}{0}{22}{38/40}{}{1}}}
\@writefile{nav}{\headcommand {\beamer@framepages {38}{40}}}
\@writefile{toc}{\beamer@sectionintoc {7}{Conclusions and future work}{41}{1}{6}}
\@writefile{nav}{\headcommand {\sectionentry {7}{Conclusions and future work}{41}{Conclusions and future work}{1}}}
\@writefile{nav}{\headcommand {\beamer@sectionpages {37}{40}}}
\@writefile{nav}{\headcommand {\beamer@subsectionpages {37}{40}}}
\@writefile{nav}{\headcommand {\slideentry {7}{0}{23}{41/41}{}{1}}}
\@writefile{nav}{\headcommand {\beamer@framepages {41}{41}}}
\@writefile{nav}{\headcommand {\slideentry {7}{0}{24}{42/42}{}{1}}}
\@writefile{nav}{\headcommand {\beamer@framepages {42}{42}}}
\@setckpt{talk}{
\setcounter{page}{43}
\setcounter{equation}{0}
\setcounter{enumi}{0}
\setcounter{enumii}{0}
\setcounter{enumiii}{0}
\setcounter{enumiv}{0}
\setcounter{footnote}{0}
\setcounter{mpfootnote}{0}
\setcounter{beamerpauses}{1}
\setcounter{bookmark@seq@number}{6}
\setcounter{lecture}{0}
\setcounter{part}{1}
\setcounter{section}{7}
\setcounter{subsection}{0}
\setcounter{subsubsection}{0}
\setcounter{subsectionslide}{24}
\setcounter{framenumber}{23}
\setcounter{figure}{0}
\setcounter{table}{0}
\setcounter{parentequation}{0}
\setcounter{theorem}{0}
\setcounter{tcbbreakpart}{1}
\setcounter{tcblayer}{0}
\setcounter{section@level}{0}
}
