\relax 
\citation{achanta12}
\citation{Kybic-ISBI2014}
\citation{Kybic-ISBI2014}
\citation{Arganda-Carreras2006}
\citation{Kybic-ISBI2014}
\citation{Klein2010}
\citation{Klein2010}
\citation{Arganda-Carreras2006}
\citation{Bay2006}
\bibstyle{ieee}
\bibdata{bic2015}
\bibcite{achanta12}{1}
\bibcite{Arganda-Carreras2006}{2}
\bibcite{Bay2006}{3}
\bibcite{Klein2010}{4}
\bibcite{Kybic-ISBI2014}{5}
