\begin{tikzpicture}[scale=0.8, node distance=0.5cm, auto,>=latex', thick, every text node part/.style={align=center, inner sep=30pt, minimum size=0.1cm}]
%\draw [help lines, step=0.5cm] (0,0) grid (12,12);
\node (s1) at (1,1) {};
\node (s2) at (10,10) {};
\node (s3) at (1,1) {};
\node (s4) at (7,7) {};
\node (c1) at (4,4) [label=$C_1$]{};
\node (c2) at (7,7) [label=$C_K$]{};
\node (c3) at (4,7) [label=$C_3$]{};
\node (c4) at (7,4) [label=$C_2$]{};
\node (v1) at (1,3) {};
\node (v2) at (2,5) {};
\node (v3) at (6,6) {};
\node (v4) at (5,1) {};

\draw[line width=2, blue] (s1) rectangle (s2);
\draw[densely dashed, line width=2, black, fill=black,opacity=0.1] (s3) rectangle (s4);
\draw [red, fill=red] (c1) circle [radius=0.1];
\draw [red, fill=red] (c2) circle [radius=0.1];
\draw [red, fill=red] (c3) circle [radius=0.1];
\draw [red, fill=red] (c4) circle [radius=0.1];

\path[->, line width=1.5, black] (c1.center) edge node[pos=0.5, above]{$D_1$}(v1.center);
\path[->, line width=1.5, black] (c1.center) edge node[pos=0.5, above]{$D_2$}(v2.center);
\path[->, line width=1.5, black] (c1.center) edge node [pos=0.6, below]{$D_3$}(v3.center);
\path[->, line width=1.5, black] (c1.center) edge node [pos=0.5, right]{$D_i$}(v4.center);
\path[|-|,dashed,line width=1, black] (0.8,1) edge node [pos=0.5]{$2S$}(0.8,7);
\path[|-|,dashed,line width=1, black] (1,0.8) edge node [pos=0.5, below]{$2S$}(7,0.8);
\path[|-|,dashed,line width=1, black] (7.4,7) edge node [pos=0.5, right]{$S$}(7.4,4);
\path[|-|,dashed,line width=1, black] (4,8) edge node [pos=0.5, above]{$S$}(7,8);
\end{tikzpicture}