\begin{tikzpicture}[scale=0.8, node distance=0.5cm, auto,>=latex', thick, every text node part/.style={align=center, inner sep=30pt, minimum size=0.1cm}]
   
    \draw[blue, fill=white, very thick] (-8,-1.5) rectangle (-5,1.5);
    \node (T1) at (-6.5,2) {Texture};
    \node (T1) at (-6.5,0) {$T(x,y)$};
    \node (T2) at (-5.2,0) {};
    
    \draw[blue, fill=white, very thick] (-3,-1) rectangle (0,1);
    \node (F1) at (-1.5,0) {$LM18$};
    \node (F2) at (-1.5,1.5) {Filter bank};
    \node (F3) at (5,3) {Filter responses\\ $F_i$};
    \node (F4) at (5.1,-4.3) {k-means \\clustering};
    
    \fill[red] (-7.7,1.1) circle (0.2);
    \fill[green] (-7.2,0.9) circle (0.2);
    \fill[blue] (-7.6,0.6) circle (0.2);
        
    \draw[decorate,decoration={brace,mirror,amplitude=8pt}, xshift=-40pt,yshift=0pt] (5.3,-3.2) -- (7.5,-3.2) {};
    
    
    \path [->, black] (T2) edge (-3,0);
    \path [->, black] (0,0) edge (1.8,0);

   \begin{scope}[yshift=-160,every node/.append style={yslant=0.5,xslant=-1},yslant=0.5,xslant=-1]
        \fill[white] (5,0) rectangle (8,3);
        \draw[blue,very thick] (5,0) rectangle (8,3);
        \fill[red] (5.5,0.5) circle  (0.2);
        \fill[blue] (6,0.7) circle  (0.2);
         \fill[green] (5.6,1) circle  (0.2);
        \end{scope}
        
    \begin{scope}[yshift=-110,every node/.append style={yslant=0.5,xslant=-1},yslant=0.5,xslant=-1]
        \fill[white,fill opacity=0.7] (5,0) rectangle (8,3);
        \draw[blue,very thick, fill opacity=0.1] (5,0) rectangle (8,3);
        \fill[red] (5.5,0.5) circle (0.2);
         \fill[blue] (6,0.7) circle  (0.2);
         \fill[green] (5.6,1) circle  (0.2);
    \end{scope}
            
    \begin{scope}[yshift=-90,every node/.append style={yslant=0.5,xslant=-1},yslant=0.5,xslant=-1]
        \fill[white,fill opacity=0.7] (5,0) rectangle (8,3);
        \draw[blue,very thick] (5,0) rectangle (8,3);
        \fill[red] (5.5,0.5) circle (0.2);
         \fill[blue] (6,0.7) circle  (0.2);
         \fill[green] (5.6,1) circle  (0.2);
    \end{scope}
\end{tikzpicture}