\relax 
\select@language{english}
\@writefile{toc}{\select@language{english}}
\@writefile{lof}{\select@language{english}}
\@writefile{lot}{\select@language{english}}
\pgfsyspdfmark {pgfid1}{2176578}{1193531}
\newlabel{myenum@1}{{{4}}{2}}
\newlabel{myenum@2}{{{3}}{2}}
\newlabel{myenum@3}{{{3}}{2}}
