\relax 
\citation{FERLAY2014}
\citation{HAYAT2009}
\citation{JEMAL2011}
\citation{NICHOLSON2014}
\citation{CONTI2011}
\citation{CALON2015}
\citation{CONTI2011}
\citation{ISELLA2015}
\select@language{english}
\@writefile{toc}{\select@language{english}}
\@writefile{lof}{\select@language{english}}
\@writefile{lot}{\select@language{english}}
\providecommand \oddpage@label [2]{}
\select@language{english}
\@writefile{toc}{\select@language{english}}
\@writefile{lof}{\select@language{english}}
\@writefile{lot}{\select@language{english}}
\@writefile{toc}{\contentsline {title}{Classification of Tumor Epithelium and Stroma in Colorectal Cancer based on Discrete Tchebichef Moments}{1}}
\@writefile{toc}{\authcount {2}}
\@writefile{toc}{\contentsline {author}{Rodrigo Nava \unskip {}, Germ\'an Gonz\'alez \unskip {}, Jan Kybic\unskip {}, \and Boris Escalante-Ram\'irez \unskip {}}{1}}
\@writefile{toc}{\contentsline {section}{\numberline {1}Introduction}{1}}
\newlabel{sec:introduction}{{1}{1}}
\citation{SIMON2003}
\citation{LINDER2012}
\citation{LINDER2012}
\citation{WANG2011}
\citation{JANOWCZYK2013,KWAK2011,DOYLE2012}
\citation{FORAN2011}
\citation{LINDER2012}
\citation{OJALA2002}
\@writefile{lof}{\contentsline {figure}{\numberline {1}{\ignorespaces Samples of colorectal cancer in digitized tissue microarrays (only red channel) from the database used in \cite  {LINDER2012}. First row shows pure tumor epithelium and second row shows tumor stroma extracted from a paraffin block.}}{2}}
\newlabel{fig:figure_1}{{1}{2}}
\@writefile{toc}{\contentsline {section}{\numberline {2}Material and methods}{2}}
\newlabel{sec:mat_and_met}{{2}{2}}
\citation{LINDER2012}
\citation{FLUSSER2009}
\citation{MUKUNDAN2001}
\newlabel{fig:figure_2a}{{2(a)}{3}}
\newlabel{sub@fig:figure_2a}{{(a)}{3}}
\newlabel{fig:figure_2b}{{2(b)}{3}}
\newlabel{sub@fig:figure_2b}{{(b)}{3}}
\@writefile{lof}{\contentsline {figure}{\numberline {2}{\ignorespaces Set of scaled Tchebichef kernels. \textbf  {(a)} 1-D discrete Tchebichef polynomials of order $s$ from $0$ to $5$. \textbf  {(b)} Ensemble of 2-D discrete Tchebichef polynomials. The magnitude of the moment of order $s$ is calculated by summing of the correlation indexes, $p,q$ so that $s = p+q$. Graphically, the sum is carried out diagonally.}}{3}}
\@writefile{lof}{\contentsline {subfigure}{\numberline{(a)}{\ignorespaces {}}}{3}}
\@writefile{lof}{\contentsline {subfigure}{\numberline{(b)}{\ignorespaces {}}}{3}}
\newlabel{fig:figure_2}{{2}{3}}
\@writefile{toc}{\contentsline {subsection}{\numberline {2.1}Dataset}{3}}
\newlabel{sec:image_database}{{2.1}{3}}
\@writefile{toc}{\contentsline {subsection}{\numberline {2.2}Discrete Tchebichef Moments}{3}}
\newlabel{sec:tchebi-moments}{{2.2}{3}}
\citation{MUKUNDAN2004}
\citation{MARCOS2013}
\citation{NAVA2013}
\citation{MUKUNDAN2001}
\newlabel{eq:equation_1}{{1}{4}}
\newlabel{eq:equation_2}{{2}{4}}
\newlabel{eq:equation_3}{{3}{4}}
\@writefile{toc}{\contentsline {subsection}{\numberline {2.3}Feature Extraction}{4}}
\newlabel{sec:feature-extraction}{{2.3}{4}}
\newlabel{fig:figure_3a}{{3(a)}{5}}
\newlabel{sub@fig:figure_3a}{{(a)}{5}}
\newlabel{fig:figure_3b}{{3(b)}{5}}
\newlabel{sub@fig:figure_3b}{{(b)}{5}}
\newlabel{fig:figure_3c}{{3(c)}{5}}
\newlabel{sub@fig:figure_3c}{{(c)}{5}}
\@writefile{lof}{\contentsline {figure}{\numberline {3}{\ignorespaces DTM signatures. \textbf  {(a)} Average, \textbf  {(b)} standard deviation, and \textbf  {(c)} contrast vectors obtained from tumor epithelium (black) and stroma (gray)tissues.}}{5}}
\@writefile{lof}{\contentsline {subfigure}{\numberline{(a)}{\ignorespaces {}}}{5}}
\@writefile{lof}{\contentsline {subfigure}{\numberline{(b)}{\ignorespaces {}}}{5}}
\@writefile{lof}{\contentsline {subfigure}{\numberline{(c)}{\ignorespaces {}}}{5}}
\newlabel{fig:figure_3}{{3}{5}}
\newlabel{eq:equation_4}{{4}{5}}
\@writefile{toc}{\contentsline {subsection}{\numberline {2.4}Classifier}{5}}
\newlabel{sec:classifier}{{2.4}{5}}
\gincltex@bb{resources/figure_4_a.tex}{0}{0}{53.49187}{37.97478}
\gincltex@bb{resources/figure_4_b.tex}{0}{0}{53.49187}{37.90509}
\gincltex@bb{resources/figure_4_c.tex}{0}{0}{53.49187}{37.90509}
\citation{OJALA2002}
\citation{LINDER2012}
\citation{LINDER2012}
\@writefile{lot}{\contentsline {table}{\numberline {1}{\ignorespaces Comparison and classification results. All the data are expressed in (\%). Bold values represent the best results.}}{6}}
\newlabel{tab:table_1}{{1}{6}}
\@writefile{toc}{\contentsline {section}{\numberline {3}Experimental results}{6}}
\newlabel{sec:results}{{3}{6}}
\@writefile{toc}{\contentsline {section}{\numberline {4}Conclusions}{6}}
\newlabel{sec:conclusions}{{4}{6}}
\@writefile{lof}{\contentsline {figure}{\numberline {4}{\ignorespaces Final classification results. Epi. and Strom. stand for tumor epithelium and tumor stroma, respectively. \textbf  {(a)} DTMs with SVM. \textbf  {(b)} DTMs with \textit  {k}-NN; and \textbf  {(c)} LBPs with SVM.}}{6}}
\@writefile{lof}{\contentsline {subfigure}{\numberline{(a)}{\ignorespaces {}}}{6}}
\@writefile{lof}{\contentsline {subfigure}{\numberline{(b)}{\ignorespaces {}}}{6}}
\@writefile{lof}{\contentsline {subfigure}{\numberline{(c)}{\ignorespaces {}}}{6}}
\newlabel{fig:figure_4}{{4}{6}}
\citation{LINDER2012}
\bibstyle{splncs03}
\bibdata{bibliography}
\bibcite{CALON2015}{1}
\bibcite{CONTI2011}{2}
\bibcite{DOYLE2012}{3}
\bibcite{FERLAY2014}{4}
\@writefile{lof}{\contentsline {figure}{\numberline {5}{\ignorespaces ROC curve for DTMs/SVM proposal. The achieved AUC is $0.9847$.}}{7}}
\newlabel{fig:figure_5}{{5}{7}}
\bibcite{FLUSSER2009}{5}
\bibcite{FORAN2011}{6}
\bibcite{HAYAT2009}{7}
\bibcite{ISELLA2015}{8}
\bibcite{JANOWCZYK2013}{9}
\bibcite{JEMAL2011}{10}
\bibcite{KWAK2011}{11}
\bibcite{LINDER2012}{12}
\bibcite{MARCOS2013}{13}
\bibcite{MUKUNDAN2004}{14}
\bibcite{MUKUNDAN2001}{15}
\bibcite{NAVA2013}{16}
\bibcite{NICHOLSON2014}{17}
\bibcite{OJALA2002}{18}
\bibcite{SIMON2003}{19}
\bibcite{WANG2011}{20}
